%!PS-Adobe-3.0 EPSF-3.0
%%DocumentNeededResources: font Helvetica
%%+ font Helvetica-Bold
%%+ font Helvetica-Oblique
%%+ font Helvetica-BoldOblique
%%+ font Symbol
%%Title: R Graphics Output
%%Creator: R Software
%%Pages: (atend)
%%BoundingBox: 0 0 720 720
%%EndComments
%%BeginProlog
/bp  { gs sRGB gs } def
% begin .ps.prolog
/gs  { gsave } bind def
/gr  { grestore } bind def
/ep  { showpage gr gr } bind def
/m   { moveto } bind def
/l  { rlineto } bind def
/np  { newpath } bind def
/cp  { closepath } bind def
/f   { fill } bind def
/o   { stroke } bind def
/c   { newpath 0 360 arc } bind def
/r   { 4 2 roll moveto 1 copy 3 -1 roll exch 0 exch rlineto 0 rlineto -1 mul 0 exch rlineto closepath } bind def
/p1  { stroke } bind def
/p2  { gsave bg fill grestore newpath } bind def
/p3  { gsave bg fill grestore stroke } bind def
/p6  { gsave bg eofill grestore newpath } bind def
/p7  { gsave bg eofill grestore stroke } bind def
/t   { 5 -2 roll moveto gsave rotate
       1 index stringwidth pop
       mul neg 0 rmoveto show grestore } bind def
/ta  { 4 -2 roll moveto gsave rotate show } bind def
/tb  { 2 -1 roll 0 rmoveto show } bind def
/cl  { grestore gsave newpath 3 index 3 index moveto 1 index
       4 -1 roll lineto  exch 1 index lineto lineto
       closepath clip newpath } bind def
/rgb { setrgbcolor } bind def
/s   { scalefont setfont } bind def
% end   .ps.prolog
/sRGB { [ /CIEBasedABC
          << /DecodeLMN
               [ { dup 0.03928 le
                        {12.92321 div}
                        {0.055 add 1.055 div 2.4 exp }
                     ifelse
                 } bind dup dup
               ]
             /MatrixLMN [0.412457 0.212673 0.019334
                         0.357576 0.715152 0.119192
                         0.180437 0.072175 0.950301]
             /WhitePoint [0.9505 1.0 1.0890]
           >>
         ] setcolorspace } bind def
/srgb { setcolor } bind def
%%IncludeResource: font Helvetica
/Helvetica findfont
dup length dict begin
  {1 index /FID ne {def} {pop pop} ifelse} forall
  /Encoding ISOLatin1Encoding def
  currentdict
  end
/Font1 exch definefont pop
%%IncludeResource: font Helvetica-Bold
/Helvetica-Bold findfont
dup length dict begin
  {1 index /FID ne {def} {pop pop} ifelse} forall
  /Encoding ISOLatin1Encoding def
  currentdict
  end
/Font2 exch definefont pop
%%IncludeResource: font Helvetica-Oblique
/Helvetica-Oblique findfont
dup length dict begin
  {1 index /FID ne {def} {pop pop} ifelse} forall
  /Encoding ISOLatin1Encoding def
  currentdict
  end
/Font3 exch definefont pop
%%IncludeResource: font Helvetica-BoldOblique
/Helvetica-BoldOblique findfont
dup length dict begin
  {1 index /FID ne {def} {pop pop} ifelse} forall
  /Encoding ISOLatin1Encoding def
  currentdict
  end
/Font4 exch definefont pop
%%IncludeResource: font Symbol
/Symbol findfont
dup length dict begin
  {1 index /FID ne {def} {pop pop} ifelse} forall
  currentdict
  end
/Font5 exch definefont pop
%%EndProlog
%%Page: 1 1
bp
0.00 0.00 720.00 720.00 cl
0.00 0.00 720.00 720.00 cl
0.00 0.00 720.00 720.00 cl
0.00 0.00 720.00 720.00 cl
0.00 0.00 720.00 720.00 cl
0.00 0.00 720.00 720.00 cl
0.00 0.00 720.00 720.00 cl
0.00 0.00 720.00 720.00 cl
0.00 0.00 720.00 720.00 cl
0.00 0.00 720.00 720.00 cl
/bg { 1 1 1 srgb } def
1 1 1 srgb
1.16 setlinewidth
[] 0 setdash
1 setlinecap
1 setlinejoin
10.00 setmiterlimit
0.00 0.00 720.00 720.00 r p3
0.00 0.00 720.00 720.00 cl
70.27 48.35 714.02 714.02 cl
/bg { 1 1 1 srgb } def
70.27 48.35 643.76 665.68 r p2
/bg { 0 0 0 srgb } def
0 0 0 srgb
0.71 setlinewidth
[] 0 setdash
1 setlinecap
1 setlinejoin
10.00 setmiterlimit
245.84 443.80 1.95 c p3
245.84 405.28 1.95 c p3
245.84 442.22 1.95 c p3
245.84 447.74 1.95 c p3
245.84 432.56 1.95 c p3
245.84 448.03 1.95 c p3
1.07 setlinewidth
[] 0 setdash
0 setlinecap
np
245.84 200.70 m
0 127.67 l
o
np
245.84 78.60 m
0 0 l
o
/bg { 1 1 1 srgb } def
1 setlinecap
np
 143.42 200.70 m
0 -122.10 l
204.83 0 l
0 122.10 l
-204.83 0 l
cp p3
2.13 setlinewidth
[] 0 setdash
0 setlinecap
np
143.42 78.60 m
204.83 0 l
o
/bg { 0 0 0 srgb } def
0.71 setlinewidth
[] 0 setdash
1 setlinecap
538.45 435.44 1.95 c p3
538.45 533.70 1.95 c p3
538.45 412.48 1.95 c p3
538.45 428.77 1.95 c p3
538.45 654.95 1.95 c p3
538.45 417.00 1.95 c p3
538.45 450.11 1.95 c p3
538.45 565.64 1.95 c p3
538.45 428.77 1.95 c p3
1.07 setlinewidth
[] 0 setdash
0 setlinecap
np
538.45 201.58 m
0 121.23 l
o
np
538.45 78.60 m
0 0 l
o
/bg { 1 1 1 srgb } def
1 setlinecap
np
 436.04 201.58 m
0 -122.98 l
204.83 0 l
0 122.98 l
-204.83 0 l
cp p3
2.13 setlinewidth
[] 0 setdash
0 setlinecap
np
436.04 189.84 m
204.83 0 l
o
/Font1 findfont 11 s
392.14 690.42 (0.13) .5 0 t
0.64 setlinewidth
[] 0 setdash
1 setlinecap
np
245.84 666.47 m
0 17.29 l
o
np
245.84 683.76 m
292.61 0 l
o
np
538.45 683.76 m
0 -17.29 l
o
0.00 0.00 720.00 720.00 cl
0.00 0.00 720.00 720.00 cl
0.00 0.00 720.00 720.00 cl
0.00 0.00 720.00 720.00 cl
0.00 0.00 720.00 720.00 cl
0.00 0.00 720.00 720.00 cl
0.00 0.00 720.00 720.00 cl
0.00 0.00 720.00 720.00 cl
0.00 0.00 720.00 720.00 cl
0.00 0.00 720.00 720.00 cl
0.00 0.00 720.00 720.00 cl
0.00 0.00 720.00 720.00 cl
0.00 0.00 720.00 720.00 cl
0 0 0 srgb
1.07 setlinewidth
[] 0 setdash
0 setlinecap
1 setlinejoin
10.00 setmiterlimit
np
70.27 48.35 m
0 665.67 l
o
0.00 0.00 720.00 720.00 cl
0.00 0.00 720.00 720.00 cl
0.00 0.00 720.00 720.00 cl
/Font1 findfont 20 s
0 0 0 srgb
64.89 71.42 (0.00) 1 0 t
64.89 226.61 (0.01) 1 0 t
64.89 381.79 (0.02) 1 0 t
64.89 536.98 (0.03) 1 0 t
64.89 692.16 (0.04) 1 0 t
0.00 0.00 720.00 720.00 cl
0.00 0.00 720.00 720.00 cl
0 0 0 srgb
1.16 setlinewidth
[] 0 setdash
0 setlinecap
1 setlinejoin
10.00 setmiterlimit
np
67.28 78.60 m
2.99 0 l
o
np
67.28 233.79 m
2.99 0 l
o
np
67.28 388.97 m
2.99 0 l
o
np
67.28 544.16 m
2.99 0 l
o
np
67.28 699.34 m
2.99 0 l
o
0.00 0.00 720.00 720.00 cl
0.00 0.00 720.00 720.00 cl
0.00 0.00 720.00 720.00 cl
0.00 0.00 720.00 720.00 cl
0.00 0.00 720.00 720.00 cl
0.00 0.00 720.00 720.00 cl
0.00 0.00 720.00 720.00 cl
0 0 0 srgb
1.07 setlinewidth
[] 0 setdash
0 setlinecap
1 setlinejoin
10.00 setmiterlimit
np
70.27 48.35 m
643.75 0 l
o
0.00 0.00 720.00 720.00 cl
0.00 0.00 720.00 720.00 cl
0.00 0.00 720.00 720.00 cl
0 0 0 srgb
1.16 setlinewidth
[] 0 setdash
0 setlinecap
1 setlinejoin
10.00 setmiterlimit
np
245.84 45.36 m
0 2.99 l
o
np
538.45 45.36 m
0 2.99 l
o
0.00 0.00 720.00 720.00 cl
0.00 0.00 720.00 720.00 cl
/Font1 findfont 20 s
0 0 0 srgb
245.84 28.61 (0) .5 0 t
538.45 28.61 (50) .5 0 t
0.00 0.00 720.00 720.00 cl
0.00 0.00 720.00 720.00 cl
0.00 0.00 720.00 720.00 cl
0.00 0.00 720.00 720.00 cl
0.00 0.00 720.00 720.00 cl
0.00 0.00 720.00 720.00 cl
/Font1 findfont 20 s
0 0 0 srgb
120.91 8.62 (Injected antibody specific f) 0 ta
-0.600 (or imm) tb
-0.200 (unodominant epitope [nMol]) tb gr
0.00 0.00 720.00 720.00 cl
0.00 0.00 720.00 720.00 cl
/Font1 findfont 20 s
0 0 0 srgb
20.34 109.95 (Gener) 90 ta
-0.200 (ated antibody specific f) tb
-0.600 (or lo) tb
-0.300 (w accessib) tb
-0.400 (le epitope [nMol]) tb gr
0.00 0.00 720.00 720.00 cl
0.00 0.00 720.00 720.00 cl
0.00 0.00 720.00 720.00 cl
0.00 0.00 720.00 720.00 cl
0.00 0.00 720.00 720.00 cl
0.00 0.00 720.00 720.00 cl
0.00 0.00 720.00 720.00 cl
0.00 0.00 720.00 720.00 cl
0.00 0.00 720.00 720.00 cl
0.00 0.00 720.00 720.00 cl
0.00 0.00 720.00 720.00 cl
0.00 0.00 720.00 720.00 cl
ep
%%Trailer
%%Pages: 1
%%EOF
