%!PS-Adobe-2.0 EPSF-2.0
%%Creator: GLE 4.2.5 <www.gle-graphics.org>
%%CreationDate: Thu Oct 25 09:45:05 2018
%%Title: FigureS2C.gle
%%BoundingBox: 0 0 428 428
%%HiResBoundingBox: 0 0 427.197 427.197
%%EndComments
%%EndProlog
gsave
/f {findfont exch scalefont setfont} bind def
/s {show} bind def
/ps {true charpath} bind def
/l {lineto} bind def
/m {newpath moveto} bind def
matrix currentmatrix /originmat exch def
/umatrix {originmat matrix concatmatrix setmatrix} def
[28.3465 0 0 28.3465 0 0] umatrix
[28.3465 0 0 28.3465 1 1] umatrix
[] 0 setdash
0.02 setlinewidth
0 setgray
0 0 m
2 2 m
2 2 m
2 2 m
2 2 m
14 2 m
2 2 m
2 2 m
2 14 m
2 2 m
2 2 m
14 2 m
2 2 m
2 2 m
2 14 m
0.02 setlinewidth
[] 0 setdash
0 setgray
newpath 2.31429 2 moveto 2.82857 2 l 2.82857 2.054 l 2.31429 2.054 l closepath
0 setgray
fill
0 setgray
newpath
2 14 m
newpath 2.31429 2 moveto 2.82857 2 l 2.82857 2.054 l 2.31429 2.054 l closepath
stroke
2 14 m
newpath 2.88571 2 moveto 3.4 2 l 3.4 2.372 l 2.88571 2.372 l closepath
0 setgray
fill
0 setgray
newpath
2 14 m
newpath 2.88571 2 moveto 3.4 2 l 3.4 2.372 l 2.88571 2.372 l closepath
stroke
2 14 m
newpath 3.45714 2 moveto 3.97143 2 l 3.97143 3.062 l 3.45714 3.062 l closepath
0 setgray
fill
0 setgray
newpath
2 14 m
newpath 3.45714 2 moveto 3.97143 2 l 3.97143 3.062 l 3.45714 3.062 l closepath
stroke
2 14 m
newpath 4.02857 2 moveto 4.54286 2 l 4.54286 5.993 l 4.02857 5.993 l closepath
0 setgray
fill
0 setgray
newpath
2 14 m
newpath 4.02857 2 moveto 4.54286 2 l 4.54286 5.993 l 4.02857 5.993 l closepath
stroke
2 14 m
newpath 4.6 2 moveto 5.11429 2 l 5.11429 13.334 l 4.6 13.334 l closepath
0 setgray
fill
0 setgray
newpath
2 14 m
newpath 4.6 2 moveto 5.11429 2 l 5.11429 13.334 l 4.6 13.334 l closepath
stroke
2 14 m
newpath 5.17143 2 moveto 5.68571 2 l 5.68571 7.973 l 5.17143 7.973 l closepath
0 setgray
fill
0 setgray
newpath
2 14 m
newpath 5.17143 2 moveto 5.68571 2 l 5.68571 7.973 l 5.17143 7.973 l closepath
stroke
2 14 m
newpath 5.74286 2 moveto 6.25714 2 l 6.25714 5.015 l 5.74286 5.015 l closepath
0 setgray
fill
0 setgray
newpath
2 14 m
newpath 5.74286 2 moveto 6.25714 2 l 6.25714 5.015 l 5.74286 5.015 l closepath
stroke
2 14 m
newpath 6.31429 2 moveto 6.82857 2 l 6.82857 3.449 l 6.31429 3.449 l closepath
0 setgray
fill
0 setgray
newpath
2 14 m
newpath 6.31429 2 moveto 6.82857 2 l 6.82857 3.449 l 6.31429 3.449 l closepath
stroke
2 14 m
newpath 6.88571 2 moveto 7.4 2 l 7.4 2.516 l 6.88571 2.516 l closepath
0 setgray
fill
0 setgray
newpath
2 14 m
newpath 6.88571 2 moveto 7.4 2 l 7.4 2.516 l 6.88571 2.516 l closepath
stroke
2 14 m
newpath 7.45714 2 moveto 7.97143 2 l 7.97143 2.132 l 7.45714 2.132 l closepath
0 setgray
fill
0 setgray
newpath
2 14 m
newpath 7.45714 2 moveto 7.97143 2 l 7.97143 2.132 l 7.45714 2.132 l closepath
stroke
2 14 m
newpath 8.02857 2 moveto 8.54286 2 l 8.54286 2.018 l 8.02857 2.018 l closepath
0 setgray
fill
0 setgray
newpath
2 14 m
newpath 8.02857 2 moveto 8.54286 2 l 8.54286 2.018 l 8.02857 2.018 l closepath
stroke
2 14 m
newpath 8.6 2 moveto 9.11429 2 l 9.11429 2.003 l 8.6 2.003 l closepath
0 setgray
fill
0 setgray
newpath
2 14 m
newpath 8.6 2 moveto 9.11429 2 l 9.11429 2.003 l 8.6 2.003 l closepath
stroke
2 14 m
0 setgray
0.02 setlinewidth
[] 0 setdash
2 2 m
2 2 m
0 setgray
[] 0 setdash
2 2.75 m
2 2.75 m
2.0545 2.75 l
stroke
2 4.25 m
2 4.25 m
2.0545 4.25 l
stroke
2 5.75 m
2 5.75 m
2.0545 5.75 l
stroke
2 7.25 m
2 7.25 m
2.0545 7.25 l
stroke
2 8.75 m
2 8.75 m
2.0545 8.75 l
stroke
2 10.25 m
2 10.25 m
2.0545 10.25 l
stroke
2 11.75 m
2 11.75 m
2.0545 11.75 l
stroke
2 13.25 m
2 13.25 m
2.0545 13.25 l
stroke
0 setgray
0.02 setlinewidth
[] 0 setdash
0 setgray
[] 0 setdash
2 3.5 m
2 3.5 m
2.10899 3.5 l
stroke
2 5 m
2 5 m
2.10899 5 l
stroke
2 6.5 m
2 6.5 m
2.10899 6.5 l
stroke
2 8 m
2 8 m
2.10899 8 l
stroke
2 9.5 m
2 9.5 m
2.10899 9.5 l
stroke
2 11 m
2 11 m
2.10899 11 l
stroke
2 12.5 m
2 12.5 m
2.10899 12.5 l
stroke
0 setgray
0.02 setlinewidth
[] 0 setdash
0 setgray
[] 0 setdash
1 setlinecap
2 2 m
2 14 l
stroke
0 setgray
0.02 setlinewidth
[] 0 setdash
0 setlinecap
0 setgray
[] 0 setdash
1.75 2 m
1.55 1.869 m
1.55 1.869 m
1 setlinejoin
 newpath 1.6568 2.1382 moveto
1.6568 2.1382 moveto
1.6948 2.1354 1.72 2.1006 1.7268 2.0654 curveto
1.7304 2.0494 1.7312 2.0342 1.7328 2.0182 curveto
1.7328 1.9774 l
1.7308 1.9358 1.7208 1.881 1.6756 1.8642 curveto
1.6364 1.8486 1.5904 1.873 1.5788 1.913 curveto
1.57 1.9342 1.5692 1.9558 1.5672 1.9774 curveto
1.5672 2.0182 l
1.5692 2.0598 1.578 2.115 1.6228 2.1334 curveto
1.6248 2.1342 l
1.6264 2.1346 l
1.6284 2.1354 l
1.6344 2.137 l
1.638 2.1378 l
1.6424 2.1378 l
1.6432 2.1382 l
1.6568 2.1382 l
closepath
closepath
1.6444 2.1138 moveto
1.6108 2.1098 1.6008 2.0694 1.5984 2.0422 curveto
1.5984 2.0314 l
1.5976 2.0306 l
1.5976 1.975 l
1.6 1.9462 1.602 1.909 1.6284 1.8898 curveto
1.6528 1.873 1.6852 1.8918 1.692 1.9178 curveto
1.6992 1.937 1.7008 1.9558 1.7024 1.975 curveto
1.7024 2.0306 l
1.7 2.0598 1.696 2.1006 1.6624 2.1122 curveto
1.6596 2.113 l
1.6588 2.1138 l
1.6552 2.1138 l
1.6544 2.1146 l
1.6452 2.1146 l
1.6444 2.1138 l
closepath
closepath
gsave
0 setgray
fill
0 setgray
grestore
0 setlinejoin
0.02 setlinewidth
0 setgray
1.75 2 m
1.75 3.5 m
1.15 3.369 m
1.15 3.369 m
1 setlinejoin
 newpath 1.316 3.6298 moveto
1.316 3.6298 moveto
1.316 3.605 l
1.212 3.605 l
1.2112 3.6046 l
1.2112 3.5226 l
1.2208 3.529 1.2344 3.5374 1.2472 3.5378 curveto
1.2924 3.5426 1.3272 3.4982 1.3292 3.457 curveto
1.3356 3.4046 1.2864 3.3526 1.2336 3.3606 curveto
1.2072 3.3614 1.1816 3.377 1.1664 3.3986 curveto
1.1708 3.4046 1.1744 3.415 1.1796 3.4186 curveto
1.1984 3.3818 1.2592 3.367 1.2836 3.4058 curveto
1.2992 3.435 1.2988 3.4722 1.2808 3.5002 curveto
1.26 3.527 1.2188 3.5106 1.2092 3.4822 curveto
1.1832 3.4822 l
1.1832 3.6298 l
1.316 3.6298 l
closepath
closepath
gsave
0 setgray
fill
0 setgray
grestore
0 setlinejoin
0.02 setlinewidth
0 setgray
1.35 3.369 m
1 setlinejoin
 newpath 1.4568 3.6382 moveto
1.4568 3.6382 moveto
1.4948 3.6354 1.52 3.6006 1.5268 3.5654 curveto
1.5304 3.5494 1.5312 3.5342 1.5328 3.5182 curveto
1.5328 3.4774 l
1.5308 3.4358 1.5208 3.381 1.4756 3.3642 curveto
1.4364 3.3486 1.3904 3.373 1.3788 3.413 curveto
1.37 3.4342 1.3692 3.4558 1.3672 3.4774 curveto
1.3672 3.5182 l
1.3692 3.5598 1.378 3.615 1.4228 3.6334 curveto
1.4248 3.6342 l
1.4264 3.6346 l
1.4284 3.6354 l
1.4344 3.637 l
1.438 3.6378 l
1.4424 3.6378 l
1.4432 3.6382 l
1.4568 3.6382 l
closepath
closepath
1.4444 3.6138 moveto
1.4108 3.6098 1.4008 3.5694 1.3984 3.5422 curveto
1.3984 3.5314 l
1.3976 3.5306 l
1.3976 3.475 l
1.4 3.4462 1.402 3.409 1.4284 3.3898 curveto
1.4528 3.373 1.4852 3.3918 1.492 3.4178 curveto
1.4992 3.437 1.5008 3.4558 1.5024 3.475 curveto
1.5024 3.5306 l
1.5 3.5598 1.496 3.6006 1.4624 3.6122 curveto
1.4596 3.613 l
1.4588 3.6138 l
1.4552 3.6138 l
1.4544 3.6146 l
1.4452 3.6146 l
1.4444 3.6138 l
closepath
closepath
gsave
0 setgray
fill
0 setgray
grestore
0 setlinejoin
0.02 setlinewidth
0 setgray
1.55 3.369 m
1 setlinejoin
 newpath 1.6568 3.6382 moveto
1.6568 3.6382 moveto
1.6948 3.6354 1.72 3.6006 1.7268 3.5654 curveto
1.7304 3.5494 1.7312 3.5342 1.7328 3.5182 curveto
1.7328 3.4774 l
1.7308 3.4358 1.7208 3.381 1.6756 3.3642 curveto
1.6364 3.3486 1.5904 3.373 1.5788 3.413 curveto
1.57 3.4342 1.5692 3.4558 1.5672 3.4774 curveto
1.5672 3.5182 l
1.5692 3.5598 1.578 3.615 1.6228 3.6334 curveto
1.6248 3.6342 l
1.6264 3.6346 l
1.6284 3.6354 l
1.6344 3.637 l
1.638 3.6378 l
1.6424 3.6378 l
1.6432 3.6382 l
1.6568 3.6382 l
closepath
closepath
1.6444 3.6138 moveto
1.6108 3.6098 1.6008 3.5694 1.5984 3.5422 curveto
1.5984 3.5314 l
1.5976 3.5306 l
1.5976 3.475 l
1.6 3.4462 1.602 3.409 1.6284 3.3898 curveto
1.6528 3.373 1.6852 3.3918 1.692 3.4178 curveto
1.6992 3.437 1.7008 3.4558 1.7024 3.475 curveto
1.7024 3.5306 l
1.7 3.5598 1.696 3.6006 1.6624 3.6122 curveto
1.6596 3.613 l
1.6588 3.6138 l
1.6552 3.6138 l
1.6544 3.6146 l
1.6452 3.6146 l
1.6444 3.6138 l
closepath
closepath
gsave
0 setgray
fill
0 setgray
grestore
0 setlinejoin
0.02 setlinewidth
0 setgray
1.75 3.5 m
1.75 5 m
0.95 4.869 m
0.95 4.869 m
1 setlinejoin
 newpath 1.0692 5.1382 moveto
1.0692 5.1382 moveto
1.0692 4.8914 l
1.0696 4.8906 l
1.1188 4.8906 l
1.1188 4.8686 l
0.9888 4.8686 l
0.9888 4.8906 l
1.038 4.8906 l
1.0388 4.8914 l
1.0388 5.0986 l
1.022 5.093 1.0044 5.0894 0.9868 5.0898 curveto
0.9868 5.1122 l
1.0132 5.1118 1.042 5.119 1.062 5.1382 curveto
1.0692 5.1382 l
closepath
closepath
gsave
0 setgray
fill
0 setgray
grestore
0 setlinejoin
0.02 setlinewidth
0 setgray
1.15 4.869 m
1 setlinejoin
 newpath 1.2568 5.1382 moveto
1.2568 5.1382 moveto
1.2948 5.1354 1.32 5.1006 1.3268 5.0654 curveto
1.3304 5.0494 1.3312 5.0342 1.3328 5.0182 curveto
1.3328 4.9774 l
1.3308 4.9358 1.3208 4.881 1.2756 4.8642 curveto
1.2364 4.8486 1.1904 4.873 1.1788 4.913 curveto
1.17 4.9342 1.1692 4.9558 1.1672 4.9774 curveto
1.1672 5.0182 l
1.1692 5.0598 1.178 5.115 1.2228 5.1334 curveto
1.2248 5.1342 l
1.2264 5.1346 l
1.2284 5.1354 l
1.2344 5.137 l
1.238 5.1378 l
1.2424 5.1378 l
1.2432 5.1382 l
1.2568 5.1382 l
closepath
closepath
1.2444 5.1138 moveto
1.2108 5.1098 1.2008 5.0694 1.1984 5.0422 curveto
1.1984 5.0314 l
1.1976 5.0306 l
1.1976 4.975 l
1.2 4.9462 1.202 4.909 1.2284 4.8898 curveto
1.2528 4.873 1.2852 4.8918 1.292 4.9178 curveto
1.2992 4.937 1.3008 4.9558 1.3024 4.975 curveto
1.3024 5.0306 l
1.3 5.0598 1.296 5.1006 1.2624 5.1122 curveto
1.2596 5.113 l
1.2588 5.1138 l
1.2552 5.1138 l
1.2544 5.1146 l
1.2452 5.1146 l
1.2444 5.1138 l
closepath
closepath
gsave
0 setgray
fill
0 setgray
grestore
0 setlinejoin
0.02 setlinewidth
0 setgray
1.35 4.869 m
1 setlinejoin
 newpath 1.4568 5.1382 moveto
1.4568 5.1382 moveto
1.4948 5.1354 1.52 5.1006 1.5268 5.0654 curveto
1.5304 5.0494 1.5312 5.0342 1.5328 5.0182 curveto
1.5328 4.9774 l
1.5308 4.9358 1.5208 4.881 1.4756 4.8642 curveto
1.4364 4.8486 1.3904 4.873 1.3788 4.913 curveto
1.37 4.9342 1.3692 4.9558 1.3672 4.9774 curveto
1.3672 5.0182 l
1.3692 5.0598 1.378 5.115 1.4228 5.1334 curveto
1.4248 5.1342 l
1.4264 5.1346 l
1.4284 5.1354 l
1.4344 5.137 l
1.438 5.1378 l
1.4424 5.1378 l
1.4432 5.1382 l
1.4568 5.1382 l
closepath
closepath
1.4444 5.1138 moveto
1.4108 5.1098 1.4008 5.0694 1.3984 5.0422 curveto
1.3984 5.0314 l
1.3976 5.0306 l
1.3976 4.975 l
1.4 4.9462 1.402 4.909 1.4284 4.8898 curveto
1.4528 4.873 1.4852 4.8918 1.492 4.9178 curveto
1.4992 4.937 1.5008 4.9558 1.5024 4.975 curveto
1.5024 5.0306 l
1.5 5.0598 1.496 5.1006 1.4624 5.1122 curveto
1.4596 5.113 l
1.4588 5.1138 l
1.4552 5.1138 l
1.4544 5.1146 l
1.4452 5.1146 l
1.4444 5.1138 l
closepath
closepath
gsave
0 setgray
fill
0 setgray
grestore
0 setlinejoin
0.02 setlinewidth
0 setgray
1.55 4.869 m
1 setlinejoin
 newpath 1.6568 5.1382 moveto
1.6568 5.1382 moveto
1.6948 5.1354 1.72 5.1006 1.7268 5.0654 curveto
1.7304 5.0494 1.7312 5.0342 1.7328 5.0182 curveto
1.7328 4.9774 l
1.7308 4.9358 1.7208 4.881 1.6756 4.8642 curveto
1.6364 4.8486 1.5904 4.873 1.5788 4.913 curveto
1.57 4.9342 1.5692 4.9558 1.5672 4.9774 curveto
1.5672 5.0182 l
1.5692 5.0598 1.578 5.115 1.6228 5.1334 curveto
1.6248 5.1342 l
1.6264 5.1346 l
1.6284 5.1354 l
1.6344 5.137 l
1.638 5.1378 l
1.6424 5.1378 l
1.6432 5.1382 l
1.6568 5.1382 l
closepath
closepath
1.6444 5.1138 moveto
1.6108 5.1098 1.6008 5.0694 1.5984 5.0422 curveto
1.5984 5.0314 l
1.5976 5.0306 l
1.5976 4.975 l
1.6 4.9462 1.602 4.909 1.6284 4.8898 curveto
1.6528 4.873 1.6852 4.8918 1.692 4.9178 curveto
1.6992 4.937 1.7008 4.9558 1.7024 4.975 curveto
1.7024 5.0306 l
1.7 5.0598 1.696 5.1006 1.6624 5.1122 curveto
1.6596 5.113 l
1.6588 5.1138 l
1.6552 5.1138 l
1.6544 5.1146 l
1.6452 5.1146 l
1.6444 5.1138 l
closepath
closepath
gsave
0 setgray
fill
0 setgray
grestore
0 setlinejoin
0.02 setlinewidth
0 setgray
1.75 5 m
1.75 6.5 m
0.95 6.369 m
0.95 6.369 m
1 setlinejoin
 newpath 1.0692 6.6382 moveto
1.0692 6.6382 moveto
1.0692 6.3914 l
1.0696 6.3906 l
1.1188 6.3906 l
1.1188 6.3686 l
0.9888 6.3686 l
0.9888 6.3906 l
1.038 6.3906 l
1.0388 6.3914 l
1.0388 6.5986 l
1.022 6.593 1.0044 6.5894 0.9868 6.5898 curveto
0.9868 6.6122 l
1.0132 6.6118 1.042 6.619 1.062 6.6382 curveto
1.0692 6.6382 l
closepath
closepath
gsave
0 setgray
fill
0 setgray
grestore
0 setlinejoin
0.02 setlinewidth
0 setgray
1.15 6.369 m
1 setlinejoin
 newpath 1.316 6.6298 moveto
1.316 6.6298 moveto
1.316 6.605 l
1.212 6.605 l
1.2112 6.6046 l
1.2112 6.5226 l
1.2208 6.529 1.2344 6.5374 1.2472 6.5378 curveto
1.2924 6.5426 1.3272 6.4982 1.3292 6.457 curveto
1.3356 6.4046 1.2864 6.3526 1.2336 6.3606 curveto
1.2072 6.3614 1.1816 6.377 1.1664 6.3986 curveto
1.1708 6.4046 1.1744 6.415 1.1796 6.4186 curveto
1.1984 6.3818 1.2592 6.367 1.2836 6.4058 curveto
1.2992 6.435 1.2988 6.4722 1.2808 6.5002 curveto
1.26 6.527 1.2188 6.5106 1.2092 6.4822 curveto
1.1832 6.4822 l
1.1832 6.6298 l
1.316 6.6298 l
closepath
closepath
gsave
0 setgray
fill
0 setgray
grestore
0 setlinejoin
0.02 setlinewidth
0 setgray
1.35 6.369 m
1 setlinejoin
 newpath 1.4568 6.6382 moveto
1.4568 6.6382 moveto
1.4948 6.6354 1.52 6.6006 1.5268 6.5654 curveto
1.5304 6.5494 1.5312 6.5342 1.5328 6.5182 curveto
1.5328 6.4774 l
1.5308 6.4358 1.5208 6.381 1.4756 6.3642 curveto
1.4364 6.3486 1.3904 6.373 1.3788 6.413 curveto
1.37 6.4342 1.3692 6.4558 1.3672 6.4774 curveto
1.3672 6.5182 l
1.3692 6.5598 1.378 6.615 1.4228 6.6334 curveto
1.4248 6.6342 l
1.4264 6.6346 l
1.4284 6.6354 l
1.4344 6.637 l
1.438 6.6378 l
1.4424 6.6378 l
1.4432 6.6382 l
1.4568 6.6382 l
closepath
closepath
1.4444 6.6138 moveto
1.4108 6.6098 1.4008 6.5694 1.3984 6.5422 curveto
1.3984 6.5314 l
1.3976 6.5306 l
1.3976 6.475 l
1.4 6.4462 1.402 6.409 1.4284 6.3898 curveto
1.4528 6.373 1.4852 6.3918 1.492 6.4178 curveto
1.4992 6.437 1.5008 6.4558 1.5024 6.475 curveto
1.5024 6.5306 l
1.5 6.5598 1.496 6.6006 1.4624 6.6122 curveto
1.4596 6.613 l
1.4588 6.6138 l
1.4552 6.6138 l
1.4544 6.6146 l
1.4452 6.6146 l
1.4444 6.6138 l
closepath
closepath
gsave
0 setgray
fill
0 setgray
grestore
0 setlinejoin
0.02 setlinewidth
0 setgray
1.55 6.369 m
1 setlinejoin
 newpath 1.6568 6.6382 moveto
1.6568 6.6382 moveto
1.6948 6.6354 1.72 6.6006 1.7268 6.5654 curveto
1.7304 6.5494 1.7312 6.5342 1.7328 6.5182 curveto
1.7328 6.4774 l
1.7308 6.4358 1.7208 6.381 1.6756 6.3642 curveto
1.6364 6.3486 1.5904 6.373 1.5788 6.413 curveto
1.57 6.4342 1.5692 6.4558 1.5672 6.4774 curveto
1.5672 6.5182 l
1.5692 6.5598 1.578 6.615 1.6228 6.6334 curveto
1.6248 6.6342 l
1.6264 6.6346 l
1.6284 6.6354 l
1.6344 6.637 l
1.638 6.6378 l
1.6424 6.6378 l
1.6432 6.6382 l
1.6568 6.6382 l
closepath
closepath
1.6444 6.6138 moveto
1.6108 6.6098 1.6008 6.5694 1.5984 6.5422 curveto
1.5984 6.5314 l
1.5976 6.5306 l
1.5976 6.475 l
1.6 6.4462 1.602 6.409 1.6284 6.3898 curveto
1.6528 6.373 1.6852 6.3918 1.692 6.4178 curveto
1.6992 6.437 1.7008 6.4558 1.7024 6.475 curveto
1.7024 6.5306 l
1.7 6.5598 1.696 6.6006 1.6624 6.6122 curveto
1.6596 6.613 l
1.6588 6.6138 l
1.6552 6.6138 l
1.6544 6.6146 l
1.6452 6.6146 l
1.6444 6.6138 l
closepath
closepath
gsave
0 setgray
fill
0 setgray
grestore
0 setlinejoin
0.02 setlinewidth
0 setgray
1.75 6.5 m
1.75 8 m
0.95 7.869 m
0.95 7.869 m
1 setlinejoin
 newpath 1.0524 8.1382 moveto
1.0524 8.1382 moveto
1.0988 8.137 1.1356 8.0894 1.1284 8.0446 curveto
1.1236 7.9998 1.0816 7.9742 1.0516 7.9462 curveto
1.0388 7.933 l
1.0372 7.9322 l
1.0212 7.9166 l
1.02 7.9158 l
1.004 7.8998 l
1.0024 7.899 l
0.9988 7.8954 l
0.9996 7.895 l
1.1292 7.895 l
1.1292 7.8686 l
0.9708 7.8686 l
0.9708 7.8926 l
1.0352 7.957 l
1.066 7.9838 1.102 8.0186 1.0964 8.0626 curveto
1.0932 8.0882 1.0716 8.1118 1.0452 8.1138 curveto
1.0184 8.1178 0.9948 8.0966 0.9888 8.071 curveto
0.988 8.0698 l
0.9872 8.067 l
0.986 8.0626 l
0.9836 8.0538 l
0.9832 8.0518 l
0.9776 8.0586 0.9716 8.0658 0.9672 8.0734 curveto
0.9752 8.1062 1.0016 8.137 1.0364 8.1382 curveto
1.0524 8.1382 l
closepath
closepath
gsave
0 setgray
fill
0 setgray
grestore
0 setlinejoin
0.02 setlinewidth
0 setgray
1.15 7.869 m
1 setlinejoin
 newpath 1.2568 8.1382 moveto
1.2568 8.1382 moveto
1.2948 8.1354 1.32 8.1006 1.3268 8.0654 curveto
1.3304 8.0494 1.3312 8.0342 1.3328 8.0182 curveto
1.3328 7.9774 l
1.3308 7.9358 1.3208 7.881 1.2756 7.8642 curveto
1.2364 7.8486 1.1904 7.873 1.1788 7.913 curveto
1.17 7.9342 1.1692 7.9558 1.1672 7.9774 curveto
1.1672 8.0182 l
1.1692 8.0598 1.178 8.115 1.2228 8.1334 curveto
1.2248 8.1342 l
1.2264 8.1346 l
1.2284 8.1354 l
1.2344 8.137 l
1.238 8.1378 l
1.2424 8.1378 l
1.2432 8.1382 l
1.2568 8.1382 l
closepath
closepath
1.2444 8.1138 moveto
1.2108 8.1098 1.2008 8.0694 1.1984 8.0422 curveto
1.1984 8.0314 l
1.1976 8.0306 l
1.1976 7.975 l
1.2 7.9462 1.202 7.909 1.2284 7.8898 curveto
1.2528 7.873 1.2852 7.8918 1.292 7.9178 curveto
1.2992 7.937 1.3008 7.9558 1.3024 7.975 curveto
1.3024 8.0306 l
1.3 8.0598 1.296 8.1006 1.2624 8.1122 curveto
1.2596 8.113 l
1.2588 8.1138 l
1.2552 8.1138 l
1.2544 8.1146 l
1.2452 8.1146 l
1.2444 8.1138 l
closepath
closepath
gsave
0 setgray
fill
0 setgray
grestore
0 setlinejoin
0.02 setlinewidth
0 setgray
1.35 7.869 m
1 setlinejoin
 newpath 1.4568 8.1382 moveto
1.4568 8.1382 moveto
1.4948 8.1354 1.52 8.1006 1.5268 8.0654 curveto
1.5304 8.0494 1.5312 8.0342 1.5328 8.0182 curveto
1.5328 7.9774 l
1.5308 7.9358 1.5208 7.881 1.4756 7.8642 curveto
1.4364 7.8486 1.3904 7.873 1.3788 7.913 curveto
1.37 7.9342 1.3692 7.9558 1.3672 7.9774 curveto
1.3672 8.0182 l
1.3692 8.0598 1.378 8.115 1.4228 8.1334 curveto
1.4248 8.1342 l
1.4264 8.1346 l
1.4284 8.1354 l
1.4344 8.137 l
1.438 8.1378 l
1.4424 8.1378 l
1.4432 8.1382 l
1.4568 8.1382 l
closepath
closepath
1.4444 8.1138 moveto
1.4108 8.1098 1.4008 8.0694 1.3984 8.0422 curveto
1.3984 8.0314 l
1.3976 8.0306 l
1.3976 7.975 l
1.4 7.9462 1.402 7.909 1.4284 7.8898 curveto
1.4528 7.873 1.4852 7.8918 1.492 7.9178 curveto
1.4992 7.937 1.5008 7.9558 1.5024 7.975 curveto
1.5024 8.0306 l
1.5 8.0598 1.496 8.1006 1.4624 8.1122 curveto
1.4596 8.113 l
1.4588 8.1138 l
1.4552 8.1138 l
1.4544 8.1146 l
1.4452 8.1146 l
1.4444 8.1138 l
closepath
closepath
gsave
0 setgray
fill
0 setgray
grestore
0 setlinejoin
0.02 setlinewidth
0 setgray
1.55 7.869 m
1 setlinejoin
 newpath 1.6568 8.1382 moveto
1.6568 8.1382 moveto
1.6948 8.1354 1.72 8.1006 1.7268 8.0654 curveto
1.7304 8.0494 1.7312 8.0342 1.7328 8.0182 curveto
1.7328 7.9774 l
1.7308 7.9358 1.7208 7.881 1.6756 7.8642 curveto
1.6364 7.8486 1.5904 7.873 1.5788 7.913 curveto
1.57 7.9342 1.5692 7.9558 1.5672 7.9774 curveto
1.5672 8.0182 l
1.5692 8.0598 1.578 8.115 1.6228 8.1334 curveto
1.6248 8.1342 l
1.6264 8.1346 l
1.6284 8.1354 l
1.6344 8.137 l
1.638 8.1378 l
1.6424 8.1378 l
1.6432 8.1382 l
1.6568 8.1382 l
closepath
closepath
1.6444 8.1138 moveto
1.6108 8.1098 1.6008 8.0694 1.5984 8.0422 curveto
1.5984 8.0314 l
1.5976 8.0306 l
1.5976 7.975 l
1.6 7.9462 1.602 7.909 1.6284 7.8898 curveto
1.6528 7.873 1.6852 7.8918 1.692 7.9178 curveto
1.6992 7.937 1.7008 7.9558 1.7024 7.975 curveto
1.7024 8.0306 l
1.7 8.0598 1.696 8.1006 1.6624 8.1122 curveto
1.6596 8.113 l
1.6588 8.1138 l
1.6552 8.1138 l
1.6544 8.1146 l
1.6452 8.1146 l
1.6444 8.1138 l
closepath
closepath
gsave
0 setgray
fill
0 setgray
grestore
0 setlinejoin
0.02 setlinewidth
0 setgray
1.75 8 m
1.75 9.5 m
0.95 9.369 m
0.95 9.369 m
1 setlinejoin
 newpath 1.0524 9.6382 moveto
1.0524 9.6382 moveto
1.0988 9.637 1.1356 9.5894 1.1284 9.5446 curveto
1.1236 9.4998 1.0816 9.4742 1.0516 9.4462 curveto
1.0388 9.433 l
1.0372 9.4322 l
1.0212 9.4166 l
1.02 9.4158 l
1.004 9.3998 l
1.0024 9.399 l
0.9988 9.3954 l
0.9996 9.395 l
1.1292 9.395 l
1.1292 9.3686 l
0.9708 9.3686 l
0.9708 9.3926 l
1.0352 9.457 l
1.066 9.4838 1.102 9.5186 1.0964 9.5626 curveto
1.0932 9.5882 1.0716 9.6118 1.0452 9.6138 curveto
1.0184 9.6178 0.9948 9.5966 0.9888 9.571 curveto
0.988 9.5698 l
0.9872 9.567 l
0.986 9.5626 l
0.9836 9.5538 l
0.9832 9.5518 l
0.9776 9.5586 0.9716 9.5658 0.9672 9.5734 curveto
0.9752 9.6062 1.0016 9.637 1.0364 9.6382 curveto
1.0524 9.6382 l
closepath
closepath
gsave
0 setgray
fill
0 setgray
grestore
0 setlinejoin
0.02 setlinewidth
0 setgray
1.15 9.369 m
1 setlinejoin
 newpath 1.316 9.6298 moveto
1.316 9.6298 moveto
1.316 9.605 l
1.212 9.605 l
1.2112 9.6046 l
1.2112 9.5226 l
1.2208 9.529 1.2344 9.5374 1.2472 9.5378 curveto
1.2924 9.5426 1.3272 9.4982 1.3292 9.457 curveto
1.3356 9.4046 1.2864 9.3526 1.2336 9.3606 curveto
1.2072 9.3614 1.1816 9.377 1.1664 9.3986 curveto
1.1708 9.4046 1.1744 9.415 1.1796 9.4186 curveto
1.1984 9.3818 1.2592 9.367 1.2836 9.4058 curveto
1.2992 9.435 1.2988 9.4722 1.2808 9.5002 curveto
1.26 9.527 1.2188 9.5106 1.2092 9.4822 curveto
1.1832 9.4822 l
1.1832 9.6298 l
1.316 9.6298 l
closepath
closepath
gsave
0 setgray
fill
0 setgray
grestore
0 setlinejoin
0.02 setlinewidth
0 setgray
1.35 9.369 m
1 setlinejoin
 newpath 1.4568 9.6382 moveto
1.4568 9.6382 moveto
1.4948 9.6354 1.52 9.6006 1.5268 9.5654 curveto
1.5304 9.5494 1.5312 9.5342 1.5328 9.5182 curveto
1.5328 9.4774 l
1.5308 9.4358 1.5208 9.381 1.4756 9.3642 curveto
1.4364 9.3486 1.3904 9.373 1.3788 9.413 curveto
1.37 9.4342 1.3692 9.4558 1.3672 9.4774 curveto
1.3672 9.5182 l
1.3692 9.5598 1.378 9.615 1.4228 9.6334 curveto
1.4248 9.6342 l
1.4264 9.6346 l
1.4284 9.6354 l
1.4344 9.637 l
1.438 9.6378 l
1.4424 9.6378 l
1.4432 9.6382 l
1.4568 9.6382 l
closepath
closepath
1.4444 9.6138 moveto
1.4108 9.6098 1.4008 9.5694 1.3984 9.5422 curveto
1.3984 9.5314 l
1.3976 9.5306 l
1.3976 9.475 l
1.4 9.4462 1.402 9.409 1.4284 9.3898 curveto
1.4528 9.373 1.4852 9.3918 1.492 9.4178 curveto
1.4992 9.437 1.5008 9.4558 1.5024 9.475 curveto
1.5024 9.5306 l
1.5 9.5598 1.496 9.6006 1.4624 9.6122 curveto
1.4596 9.613 l
1.4588 9.6138 l
1.4552 9.6138 l
1.4544 9.6146 l
1.4452 9.6146 l
1.4444 9.6138 l
closepath
closepath
gsave
0 setgray
fill
0 setgray
grestore
0 setlinejoin
0.02 setlinewidth
0 setgray
1.55 9.369 m
1 setlinejoin
 newpath 1.6568 9.6382 moveto
1.6568 9.6382 moveto
1.6948 9.6354 1.72 9.6006 1.7268 9.5654 curveto
1.7304 9.5494 1.7312 9.5342 1.7328 9.5182 curveto
1.7328 9.4774 l
1.7308 9.4358 1.7208 9.381 1.6756 9.3642 curveto
1.6364 9.3486 1.5904 9.373 1.5788 9.413 curveto
1.57 9.4342 1.5692 9.4558 1.5672 9.4774 curveto
1.5672 9.5182 l
1.5692 9.5598 1.578 9.615 1.6228 9.6334 curveto
1.6248 9.6342 l
1.6264 9.6346 l
1.6284 9.6354 l
1.6344 9.637 l
1.638 9.6378 l
1.6424 9.6378 l
1.6432 9.6382 l
1.6568 9.6382 l
closepath
closepath
1.6444 9.6138 moveto
1.6108 9.6098 1.6008 9.5694 1.5984 9.5422 curveto
1.5984 9.5314 l
1.5976 9.5306 l
1.5976 9.475 l
1.6 9.4462 1.602 9.409 1.6284 9.3898 curveto
1.6528 9.373 1.6852 9.3918 1.692 9.4178 curveto
1.6992 9.437 1.7008 9.4558 1.7024 9.475 curveto
1.7024 9.5306 l
1.7 9.5598 1.696 9.6006 1.6624 9.6122 curveto
1.6596 9.613 l
1.6588 9.6138 l
1.6552 9.6138 l
1.6544 9.6146 l
1.6452 9.6146 l
1.6444 9.6138 l
closepath
closepath
gsave
0 setgray
fill
0 setgray
grestore
0 setlinejoin
0.02 setlinewidth
0 setgray
1.75 9.5 m
1.75 11 m
0.95 10.869 m
0.95 10.869 m
1 setlinejoin
 newpath 1.0576 11.1382 moveto
1.0576 11.1382 moveto
1.0928 11.1366 1.1296 11.1042 1.1212 11.067 curveto
1.1172 11.0418 1.0996 11.021 1.0776 11.0098 curveto
1.1132 10.9986 1.1408 10.961 1.1312 10.9238 curveto
1.1216 10.8754 1.066 10.8486 1.0212 10.8634 curveto
0.9996 10.8698 0.9776 10.8834 0.9672 10.9034 curveto
0.9696 10.9094 0.9688 10.9198 0.9716 10.9238 curveto
0.9928 10.8926 1.0376 10.8714 1.0728 10.889 curveto
1.1112 10.9134 1.1052 10.9846 1.0588 10.9966 curveto
1.0552 10.9966 l
1.0544 10.9974 l
1.0172 10.9974 l
1.0172 11.0214 l
1.04 11.0218 1.0684 11.0246 1.0812 11.0482 curveto
1.0948 11.0686 1.0936 11.1022 1.0676 11.1122 curveto
1.0368 11.1242 0.9988 11.1046 0.9872 11.0734 curveto
0.9824 11.0802 0.9776 11.087 0.9728 11.0942 curveto
0.9892 11.1238 1.024 11.1414 1.0576 11.1382 curveto
closepath
closepath
gsave
0 setgray
fill
0 setgray
grestore
0 setlinejoin
0.02 setlinewidth
0 setgray
1.15 10.869 m
1 setlinejoin
 newpath 1.2568 11.1382 moveto
1.2568 11.1382 moveto
1.2948 11.1354 1.32 11.1006 1.3268 11.0654 curveto
1.3304 11.0494 1.3312 11.0342 1.3328 11.0182 curveto
1.3328 10.9774 l
1.3308 10.9358 1.3208 10.881 1.2756 10.8642 curveto
1.2364 10.8486 1.1904 10.873 1.1788 10.913 curveto
1.17 10.9342 1.1692 10.9558 1.1672 10.9774 curveto
1.1672 11.0182 l
1.1692 11.0598 1.178 11.115 1.2228 11.1334 curveto
1.2248 11.1342 l
1.2264 11.1346 l
1.2284 11.1354 l
1.2344 11.137 l
1.238 11.1378 l
1.2424 11.1378 l
1.2432 11.1382 l
1.2568 11.1382 l
closepath
closepath
1.2444 11.1138 moveto
1.2108 11.1098 1.2008 11.0694 1.1984 11.0422 curveto
1.1984 11.0314 l
1.1976 11.0306 l
1.1976 10.975 l
1.2 10.9462 1.202 10.909 1.2284 10.8898 curveto
1.2528 10.873 1.2852 10.8918 1.292 10.9178 curveto
1.2992 10.937 1.3008 10.9558 1.3024 10.975 curveto
1.3024 11.0306 l
1.3 11.0598 1.296 11.1006 1.2624 11.1122 curveto
1.2596 11.113 l
1.2588 11.1138 l
1.2552 11.1138 l
1.2544 11.1146 l
1.2452 11.1146 l
1.2444 11.1138 l
closepath
closepath
gsave
0 setgray
fill
0 setgray
grestore
0 setlinejoin
0.02 setlinewidth
0 setgray
1.35 10.869 m
1 setlinejoin
 newpath 1.4568 11.1382 moveto
1.4568 11.1382 moveto
1.4948 11.1354 1.52 11.1006 1.5268 11.0654 curveto
1.5304 11.0494 1.5312 11.0342 1.5328 11.0182 curveto
1.5328 10.9774 l
1.5308 10.9358 1.5208 10.881 1.4756 10.8642 curveto
1.4364 10.8486 1.3904 10.873 1.3788 10.913 curveto
1.37 10.9342 1.3692 10.9558 1.3672 10.9774 curveto
1.3672 11.0182 l
1.3692 11.0598 1.378 11.115 1.4228 11.1334 curveto
1.4248 11.1342 l
1.4264 11.1346 l
1.4284 11.1354 l
1.4344 11.137 l
1.438 11.1378 l
1.4424 11.1378 l
1.4432 11.1382 l
1.4568 11.1382 l
closepath
closepath
1.4444 11.1138 moveto
1.4108 11.1098 1.4008 11.0694 1.3984 11.0422 curveto
1.3984 11.0314 l
1.3976 11.0306 l
1.3976 10.975 l
1.4 10.9462 1.402 10.909 1.4284 10.8898 curveto
1.4528 10.873 1.4852 10.8918 1.492 10.9178 curveto
1.4992 10.937 1.5008 10.9558 1.5024 10.975 curveto
1.5024 11.0306 l
1.5 11.0598 1.496 11.1006 1.4624 11.1122 curveto
1.4596 11.113 l
1.4588 11.1138 l
1.4552 11.1138 l
1.4544 11.1146 l
1.4452 11.1146 l
1.4444 11.1138 l
closepath
closepath
gsave
0 setgray
fill
0 setgray
grestore
0 setlinejoin
0.02 setlinewidth
0 setgray
1.55 10.869 m
1 setlinejoin
 newpath 1.6568 11.1382 moveto
1.6568 11.1382 moveto
1.6948 11.1354 1.72 11.1006 1.7268 11.0654 curveto
1.7304 11.0494 1.7312 11.0342 1.7328 11.0182 curveto
1.7328 10.9774 l
1.7308 10.9358 1.7208 10.881 1.6756 10.8642 curveto
1.6364 10.8486 1.5904 10.873 1.5788 10.913 curveto
1.57 10.9342 1.5692 10.9558 1.5672 10.9774 curveto
1.5672 11.0182 l
1.5692 11.0598 1.578 11.115 1.6228 11.1334 curveto
1.6248 11.1342 l
1.6264 11.1346 l
1.6284 11.1354 l
1.6344 11.137 l
1.638 11.1378 l
1.6424 11.1378 l
1.6432 11.1382 l
1.6568 11.1382 l
closepath
closepath
1.6444 11.1138 moveto
1.6108 11.1098 1.6008 11.0694 1.5984 11.0422 curveto
1.5984 11.0314 l
1.5976 11.0306 l
1.5976 10.975 l
1.6 10.9462 1.602 10.909 1.6284 10.8898 curveto
1.6528 10.873 1.6852 10.8918 1.692 10.9178 curveto
1.6992 10.937 1.7008 10.9558 1.7024 10.975 curveto
1.7024 11.0306 l
1.7 11.0598 1.696 11.1006 1.6624 11.1122 curveto
1.6596 11.113 l
1.6588 11.1138 l
1.6552 11.1138 l
1.6544 11.1146 l
1.6452 11.1146 l
1.6444 11.1138 l
closepath
closepath
gsave
0 setgray
fill
0 setgray
grestore
0 setlinejoin
0.02 setlinewidth
0 setgray
1.75 11 m
1.75 12.5 m
0.95 12.369 m
0.95 12.369 m
1 setlinejoin
 newpath 1.0576 12.6382 moveto
1.0576 12.6382 moveto
1.0928 12.6366 1.1296 12.6042 1.1212 12.567 curveto
1.1172 12.5418 1.0996 12.521 1.0776 12.5098 curveto
1.1132 12.4986 1.1408 12.461 1.1312 12.4238 curveto
1.1216 12.3754 1.066 12.3486 1.0212 12.3634 curveto
0.9996 12.3698 0.9776 12.3834 0.9672 12.4034 curveto
0.9696 12.4094 0.9688 12.4198 0.9716 12.4238 curveto
0.9928 12.3926 1.0376 12.3714 1.0728 12.389 curveto
1.1112 12.4134 1.1052 12.4846 1.0588 12.4966 curveto
1.0552 12.4966 l
1.0544 12.4974 l
1.0172 12.4974 l
1.0172 12.5214 l
1.04 12.5218 1.0684 12.5246 1.0812 12.5482 curveto
1.0948 12.5686 1.0936 12.6022 1.0676 12.6122 curveto
1.0368 12.6242 0.9988 12.6046 0.9872 12.5734 curveto
0.9824 12.5802 0.9776 12.587 0.9728 12.5942 curveto
0.9892 12.6238 1.024 12.6414 1.0576 12.6382 curveto
closepath
closepath
gsave
0 setgray
fill
0 setgray
grestore
0 setlinejoin
0.02 setlinewidth
0 setgray
1.15 12.369 m
1 setlinejoin
 newpath 1.316 12.6298 moveto
1.316 12.6298 moveto
1.316 12.605 l
1.212 12.605 l
1.2112 12.6046 l
1.2112 12.5226 l
1.2208 12.529 1.2344 12.5374 1.2472 12.5378 curveto
1.2924 12.5426 1.3272 12.4982 1.3292 12.457 curveto
1.3356 12.4046 1.2864 12.3526 1.2336 12.3606 curveto
1.2072 12.3614 1.1816 12.377 1.1664 12.3986 curveto
1.1708 12.4046 1.1744 12.415 1.1796 12.4186 curveto
1.1984 12.3818 1.2592 12.367 1.2836 12.4058 curveto
1.2992 12.435 1.2988 12.4722 1.2808 12.5002 curveto
1.26 12.527 1.2188 12.5106 1.2092 12.4822 curveto
1.1832 12.4822 l
1.1832 12.6298 l
1.316 12.6298 l
closepath
closepath
gsave
0 setgray
fill
0 setgray
grestore
0 setlinejoin
0.02 setlinewidth
0 setgray
1.35 12.369 m
1 setlinejoin
 newpath 1.4568 12.6382 moveto
1.4568 12.6382 moveto
1.4948 12.6354 1.52 12.6006 1.5268 12.5654 curveto
1.5304 12.5494 1.5312 12.5342 1.5328 12.5182 curveto
1.5328 12.4774 l
1.5308 12.4358 1.5208 12.381 1.4756 12.3642 curveto
1.4364 12.3486 1.3904 12.373 1.3788 12.413 curveto
1.37 12.4342 1.3692 12.4558 1.3672 12.4774 curveto
1.3672 12.5182 l
1.3692 12.5598 1.378 12.615 1.4228 12.6334 curveto
1.4248 12.6342 l
1.4264 12.6346 l
1.4284 12.6354 l
1.4344 12.637 l
1.438 12.6378 l
1.4424 12.6378 l
1.4432 12.6382 l
1.4568 12.6382 l
closepath
closepath
1.4444 12.6138 moveto
1.4108 12.6098 1.4008 12.5694 1.3984 12.5422 curveto
1.3984 12.5314 l
1.3976 12.5306 l
1.3976 12.475 l
1.4 12.4462 1.402 12.409 1.4284 12.3898 curveto
1.4528 12.373 1.4852 12.3918 1.492 12.4178 curveto
1.4992 12.437 1.5008 12.4558 1.5024 12.475 curveto
1.5024 12.5306 l
1.5 12.5598 1.496 12.6006 1.4624 12.6122 curveto
1.4596 12.613 l
1.4588 12.6138 l
1.4552 12.6138 l
1.4544 12.6146 l
1.4452 12.6146 l
1.4444 12.6138 l
closepath
closepath
gsave
0 setgray
fill
0 setgray
grestore
0 setlinejoin
0.02 setlinewidth
0 setgray
1.55 12.369 m
1 setlinejoin
 newpath 1.6568 12.6382 moveto
1.6568 12.6382 moveto
1.6948 12.6354 1.72 12.6006 1.7268 12.5654 curveto
1.7304 12.5494 1.7312 12.5342 1.7328 12.5182 curveto
1.7328 12.4774 l
1.7308 12.4358 1.7208 12.381 1.6756 12.3642 curveto
1.6364 12.3486 1.5904 12.373 1.5788 12.413 curveto
1.57 12.4342 1.5692 12.4558 1.5672 12.4774 curveto
1.5672 12.5182 l
1.5692 12.5598 1.578 12.615 1.6228 12.6334 curveto
1.6248 12.6342 l
1.6264 12.6346 l
1.6284 12.6354 l
1.6344 12.637 l
1.638 12.6378 l
1.6424 12.6378 l
1.6432 12.6382 l
1.6568 12.6382 l
closepath
closepath
1.6444 12.6138 moveto
1.6108 12.6098 1.6008 12.5694 1.5984 12.5422 curveto
1.5984 12.5314 l
1.5976 12.5306 l
1.5976 12.475 l
1.6 12.4462 1.602 12.409 1.6284 12.3898 curveto
1.6528 12.373 1.6852 12.3918 1.692 12.4178 curveto
1.6992 12.437 1.7008 12.4558 1.7024 12.475 curveto
1.7024 12.5306 l
1.7 12.5598 1.696 12.6006 1.6624 12.6122 curveto
1.6596 12.613 l
1.6588 12.6138 l
1.6552 12.6138 l
1.6544 12.6146 l
1.6452 12.6146 l
1.6444 12.6138 l
closepath
closepath
gsave
0 setgray
fill
0 setgray
grestore
0 setlinejoin
0.02 setlinewidth
0 setgray
1.75 12.5 m
1.75 14 m
0.95 13.869 m
0.95 13.869 m
1 setlinejoin
 newpath 1.098 14.1298 moveto
1.098 14.1298 moveto
1.098 13.9614 l
1.0988 13.9606 l
1.1384 13.9606 l
1.1384 13.9366 l
1.0988 13.9366 l
1.098 13.9362 l
1.098 13.8686 l
1.0676 13.8686 l
1.0676 13.9362 l
1.0668 13.9366 l
0.9612 13.9366 l
0.9612 13.9614 l
0.9948 14.0174 1.0284 14.0738 1.062 14.1298 curveto
1.098 14.1298 l
closepath
closepath
1.0684 14.1146 moveto
1.0604 14.073 1.0348 14.0374 1.0156 14.001 curveto
1.008 13.9878 0.998 13.9734 0.9924 13.9606 curveto
1.0692 13.9606 l
1.0696 13.9614 l
1.0696 14.1146 l
1.0692 14.1154 l
1.0684 14.1146 l
closepath
closepath
gsave
0 setgray
fill
0 setgray
grestore
0 setlinejoin
0.02 setlinewidth
0 setgray
1.15 13.869 m
1 setlinejoin
 newpath 1.2568 14.1382 moveto
1.2568 14.1382 moveto
1.2948 14.1354 1.32 14.1006 1.3268 14.0654 curveto
1.3304 14.0494 1.3312 14.0342 1.3328 14.0182 curveto
1.3328 13.9774 l
1.3308 13.9358 1.3208 13.881 1.2756 13.8642 curveto
1.2364 13.8486 1.1904 13.873 1.1788 13.913 curveto
1.17 13.9342 1.1692 13.9558 1.1672 13.9774 curveto
1.1672 14.0182 l
1.1692 14.0598 1.178 14.115 1.2228 14.1334 curveto
1.2248 14.1342 l
1.2264 14.1346 l
1.2284 14.1354 l
1.2344 14.137 l
1.238 14.1378 l
1.2424 14.1378 l
1.2432 14.1382 l
1.2568 14.1382 l
closepath
closepath
1.2444 14.1138 moveto
1.2108 14.1098 1.2008 14.0694 1.1984 14.0422 curveto
1.1984 14.0314 l
1.1976 14.0306 l
1.1976 13.975 l
1.2 13.9462 1.202 13.909 1.2284 13.8898 curveto
1.2528 13.873 1.2852 13.8918 1.292 13.9178 curveto
1.2992 13.937 1.3008 13.9558 1.3024 13.975 curveto
1.3024 14.0306 l
1.3 14.0598 1.296 14.1006 1.2624 14.1122 curveto
1.2596 14.113 l
1.2588 14.1138 l
1.2552 14.1138 l
1.2544 14.1146 l
1.2452 14.1146 l
1.2444 14.1138 l
closepath
closepath
gsave
0 setgray
fill
0 setgray
grestore
0 setlinejoin
0.02 setlinewidth
0 setgray
1.35 13.869 m
1 setlinejoin
 newpath 1.4568 14.1382 moveto
1.4568 14.1382 moveto
1.4948 14.1354 1.52 14.1006 1.5268 14.0654 curveto
1.5304 14.0494 1.5312 14.0342 1.5328 14.0182 curveto
1.5328 13.9774 l
1.5308 13.9358 1.5208 13.881 1.4756 13.8642 curveto
1.4364 13.8486 1.3904 13.873 1.3788 13.913 curveto
1.37 13.9342 1.3692 13.9558 1.3672 13.9774 curveto
1.3672 14.0182 l
1.3692 14.0598 1.378 14.115 1.4228 14.1334 curveto
1.4248 14.1342 l
1.4264 14.1346 l
1.4284 14.1354 l
1.4344 14.137 l
1.438 14.1378 l
1.4424 14.1378 l
1.4432 14.1382 l
1.4568 14.1382 l
closepath
closepath
1.4444 14.1138 moveto
1.4108 14.1098 1.4008 14.0694 1.3984 14.0422 curveto
1.3984 14.0314 l
1.3976 14.0306 l
1.3976 13.975 l
1.4 13.9462 1.402 13.909 1.4284 13.8898 curveto
1.4528 13.873 1.4852 13.8918 1.492 13.9178 curveto
1.4992 13.937 1.5008 13.9558 1.5024 13.975 curveto
1.5024 14.0306 l
1.5 14.0598 1.496 14.1006 1.4624 14.1122 curveto
1.4596 14.113 l
1.4588 14.1138 l
1.4552 14.1138 l
1.4544 14.1146 l
1.4452 14.1146 l
1.4444 14.1138 l
closepath
closepath
gsave
0 setgray
fill
0 setgray
grestore
0 setlinejoin
0.02 setlinewidth
0 setgray
1.55 13.869 m
1 setlinejoin
 newpath 1.6568 14.1382 moveto
1.6568 14.1382 moveto
1.6948 14.1354 1.72 14.1006 1.7268 14.0654 curveto
1.7304 14.0494 1.7312 14.0342 1.7328 14.0182 curveto
1.7328 13.9774 l
1.7308 13.9358 1.7208 13.881 1.6756 13.8642 curveto
1.6364 13.8486 1.5904 13.873 1.5788 13.913 curveto
1.57 13.9342 1.5692 13.9558 1.5672 13.9774 curveto
1.5672 14.0182 l
1.5692 14.0598 1.578 14.115 1.6228 14.1334 curveto
1.6248 14.1342 l
1.6264 14.1346 l
1.6284 14.1354 l
1.6344 14.137 l
1.638 14.1378 l
1.6424 14.1378 l
1.6432 14.1382 l
1.6568 14.1382 l
closepath
closepath
1.6444 14.1138 moveto
1.6108 14.1098 1.6008 14.0694 1.5984 14.0422 curveto
1.5984 14.0314 l
1.5976 14.0306 l
1.5976 13.975 l
1.6 13.9462 1.602 13.909 1.6284 13.8898 curveto
1.6528 13.873 1.6852 13.8918 1.692 13.9178 curveto
1.6992 13.937 1.7008 13.9558 1.7024 13.975 curveto
1.7024 14.0306 l
1.7 14.0598 1.696 14.1006 1.6624 14.1122 curveto
1.6596 14.113 l
1.6588 14.1138 l
1.6552 14.1138 l
1.6544 14.1146 l
1.6452 14.1146 l
1.6444 14.1138 l
closepath
closepath
gsave
0 setgray
fill
0 setgray
grestore
0 setlinejoin
0.02 setlinewidth
0 setgray
1.75 14 m
0.7 8 m
[28.3465 0 0 28.3465 -19.8425 -226.772] umatrix
[1.73572e-15 28.3465 -28.3465 1.73572e-15 226.772 -19.8425] umatrix
[1.73572e-15 28.3465 -28.3465 1.73572e-15 247.614 207.929] umatrix
-0.94185 8.1358 m
-0.77805 8.1358 m
1 setlinejoin
 newpath -0.41055 8.616 moveto
-0.41055 8.616 moveto
-0.41055 8.5719 l
-0.54425 8.5719 l
-0.54565 8.5733 l
-0.64785 8.5733 l
-0.64925 8.5719 l
-0.64925 8.3969 l
-0.64785 8.3962 l
-0.43925 8.3962 l
-0.43925 8.3542 l
-0.64785 8.3542 l
-0.64925 8.3528 l
-0.64925 8.1351 l
-0.71015 8.1351 l
-0.71015 8.616 l
-0.41055 8.616 l
closepath
closepath
gsave
0 setgray
fill
0 setgray
grestore
0 setlinejoin
0.02 setlinewidth
0 setgray
-0.39935 8.1358 m
1 setlinejoin
 newpath -0.17185 8.4515 moveto
-0.17185 8.4515 moveto
-0.17185 8.406 l
-0.23135 8.4074 -0.28525 8.357 -0.29085 8.2989 curveto
-0.29085 8.1351 l
-0.34125 8.1351 l
-0.34125 8.448 l
-0.29505 8.448 l
-0.29505 8.3857 l
-0.27755 8.4039 -0.25515 8.4305 -0.22785 8.4403 curveto
-0.22295 8.4431 l
-0.21105 8.4466 l
-0.20125 8.4494 l
-0.19495 8.4501 l
-0.18585 8.4501 l
-0.18445 8.4515 l
-0.17185 8.4515 l
closepath
closepath
gsave
0 setgray
fill
0 setgray
grestore
0 setlinejoin
0.02 setlinewidth
0 setgray
-0.16065 8.1358 m
1 setlinejoin
 newpath 0.0157499 8.4557 moveto
0.0157499 8.4557 moveto
0.0815499 8.4522 0.12495 8.3864 0.12635 8.3255 curveto
0.12705 8.3241 l
0.12705 8.3101 l
0.12845 8.3087 l
0.12845 8.287 l
-0.0878501 8.287 l
-0.0906501 8.2268 -0.0360501 8.1575 0.0290499 8.1694 curveto
0.0619499 8.1715 0.0962499 8.1869 0.12215 8.2072 curveto
0.12215 8.2009 l
0.12355 8.2002 l
0.12355 8.1862 l
0.12495 8.1848 l
0.12495 8.1708 l
0.12635 8.1694 l
0.12635 8.1631 l
0.0598499 8.112 -0.0493501 8.1127 -0.10045 8.1848 curveto
-0.17045 8.2709 -0.13335 8.4298 -0.0171501 8.4543 curveto
-0.00805008 8.4543 l
-0.00665008 8.4557 l
0.0157499 8.4557 l
closepath
closepath
-0.00525008 8.4123 moveto
-0.0479501 8.4074 -0.0773501 8.3633 -0.0836501 8.3255 curveto
0.0892499 8.3255 l
0.0878499 8.3647 0.0563499 8.4095 0.0136499 8.4137 curveto
-0.00385008 8.4137 l
-0.00525008 8.4123 l
closepath
closepath
gsave
0 setgray
fill
0 setgray
grestore
0 setlinejoin
0.02 setlinewidth
0 setgray
0.15015 8.1358 m
1 setlinejoin
 newpath 0.31675 8.4515 moveto
0.31675 8.4515 moveto
0.34965 8.4487 0.38115 8.4298 0.40145 8.4039 curveto
0.40285 8.4046 l
0.40285 8.4515 l
0.45325 8.4515 l
0.45325 7.9986 l
0.40005 7.9986 l
0.40005 8.168 l
0.37555 8.1498 0.34125 8.1274 0.30695 8.1288 curveto
0.23555 8.1169 0.18305 8.1939 0.17885 8.2583 curveto
0.16345 8.336 0.20685 8.4396 0.29365 8.4515 curveto
0.31675 8.4515 l
closepath
closepath
0.32165 8.406 moveto
0.24325 8.3969 0.20965 8.2975 0.24115 8.2331 curveto
0.25795 8.1771 0.33495 8.1449 0.37905 8.1897 curveto
0.38955 8.1974 0.39515 8.21 0.40285 8.2205 curveto
0.40285 8.3402 l
0.39305 8.3766 0.36435 8.413 0.32305 8.4074 curveto
0.32165 8.406 l
closepath
closepath
gsave
0 setgray
fill
0 setgray
grestore
0 setlinejoin
0.02 setlinewidth
0 setgray
0.51135 8.1358 m
1 setlinejoin
 newpath 0.62125 8.4438 moveto
0.62125 8.4438 moveto
0.62125 8.1988 l
0.62195 8.1778 0.64295 8.1659 0.66185 8.1645 curveto
0.70455 8.1582 0.75495 8.1813 0.76265 8.2275 curveto
0.76265 8.4438 l
0.81585 8.4438 l
0.81585 8.1351 l
0.76545 8.1351 l
0.76545 8.1673 l
0.72345 8.1358 0.66325 8.119 0.60935 8.1309 curveto
0.58275 8.1386 0.56945 8.168 0.56805 8.1939 curveto
0.56805 8.4438 l
0.62125 8.4438 l
closepath
closepath
gsave
0 setgray
fill
0 setgray
grestore
0 setlinejoin
0.02 setlinewidth
0 setgray
0.87255 8.1358 m
1 setlinejoin
 newpath 1.04895 8.4557 moveto
1.04895 8.4557 moveto
1.11475 8.4522 1.15815 8.3864 1.15955 8.3255 curveto
1.16025 8.3241 l
1.16025 8.3101 l
1.16165 8.3087 l
1.16165 8.287 l
0.94535 8.287 l
0.94255 8.2268 0.99715 8.1575 1.06225 8.1694 curveto
1.09515 8.1715 1.12945 8.1869 1.15535 8.2072 curveto
1.15535 8.2009 l
1.15675 8.2002 l
1.15675 8.1862 l
1.15815 8.1848 l
1.15815 8.1708 l
1.15955 8.1694 l
1.15955 8.1631 l
1.09305 8.112 0.98385 8.1127 0.93275 8.1848 curveto
0.86275 8.2709 0.89985 8.4298 1.01605 8.4543 curveto
1.02515 8.4543 l
1.02655 8.4557 l
1.04895 8.4557 l
closepath
closepath
1.02795 8.4123 moveto
0.98525 8.4074 0.95585 8.3633 0.94955 8.3255 curveto
1.12245 8.3255 l
1.12105 8.3647 1.08955 8.4095 1.04685 8.4137 curveto
1.02935 8.4137 l
1.02795 8.4123 l
closepath
closepath
gsave
0 setgray
fill
0 setgray
grestore
0 setlinejoin
0.02 setlinewidth
0 setgray
1.18335 8.1358 m
1 setlinejoin
 newpath 1.40455 8.4515 moveto
1.40455 8.4515 moveto
1.45145 8.4522 1.48995 8.4067 1.48645 8.3605 curveto
1.48785 8.3591 l
1.48785 8.1351 l
1.43465 8.1351 l
1.43465 8.3528 l
1.43185 8.378 1.41505 8.4053 1.38635 8.4074 curveto
1.35275 8.4186 1.31285 8.3969 1.30305 8.3619 curveto
1.29955 8.3507 l
1.29675 8.3402 l
1.29535 8.3388 l
1.29535 8.3325 l
1.29395 8.3318 l
1.29395 8.3227 l
1.29325 8.3213 l
1.29325 8.1351 l
1.24005 8.1351 l
1.24005 8.448 l
1.28905 8.448 l
1.28905 8.3997 l
1.31005 8.4221 1.34155 8.4508 1.37795 8.4501 curveto
1.37935 8.4515 l
1.40455 8.4515 l
closepath
closepath
gsave
0 setgray
fill
0 setgray
grestore
0 setlinejoin
0.02 setlinewidth
0 setgray
1.54455 8.1358 m
1 setlinejoin
 newpath 1.74265 8.4557 moveto
1.74265 8.4557 moveto
1.77275 8.4536 1.80915 8.4431 1.83155 8.4228 curveto
1.82735 8.4095 1.82735 8.3927 1.82245 8.3808 curveto
1.77135 8.4165 1.68945 8.4298 1.64815 8.3731 curveto
1.60825 8.3136 1.61455 8.217 1.68175 8.1799 curveto
1.73145 8.1589 1.78885 8.1778 1.83155 8.2072 curveto
1.83155 8.2009 l
1.83225 8.2002 l
1.82875 8.1848 1.84415 8.1638 1.82595 8.1554 curveto
1.75665 8.112 1.65305 8.1155 1.60335 8.1876 curveto
1.53335 8.2765 1.58025 8.4333 1.69715 8.4543 curveto
1.70625 8.4543 l
1.70765 8.4557 l
1.74265 8.4557 l
closepath
closepath
gsave
0 setgray
fill
0 setgray
grestore
0 setlinejoin
0.02 setlinewidth
0 setgray
1.85535 8.1358 m
1 setlinejoin
 newpath 1.91975 8.4438 moveto
1.91975 8.4438 moveto
1.95615 8.3584 1.99815 8.2723 2.01915 8.1813 curveto
2.01915 8.1694 l
2.02055 8.168 l
2.03805 8.2625 2.08005 8.3542 2.11575 8.4438 curveto
2.16615 8.4438 l
2.10945 8.3066 2.05765 8.1659 1.99535 8.0315 curveto
1.98415 8.0133 1.96875 7.9937 1.94635 7.9909 curveto
1.92045 7.9909 l
1.91975 7.9923 l
1.90715 7.9923 l
1.90575 7.993 l
1.89665 7.993 l
1.89525 7.9944 l
1.88895 7.9944 l
1.88545 7.9958 l
1.88545 8.0035 l
1.88405 8.0049 l
1.88405 8.0175 l
1.88265 8.0182 l
1.88265 8.0322 l
1.88125 8.0336 l
1.88125 8.0399 l
1.90855 8.0322 1.94705 8.0154 1.96385 8.0476 curveto
1.97855 8.0756 1.99325 8.1071 2.00025 8.1365 curveto
1.95615 8.2394 1.90995 8.3416 1.86655 8.4438 curveto
closepath
closepath
gsave
0 setgray
fill
0 setgray
grestore
0 setlinejoin
0.02 setlinewidth
0 setgray
0.7 8 m
[28.3465 0 0 28.3465 1 1] umatrix
0 setgray
0.02 setlinewidth
[] 0 setdash
14 2 m
0 setgray
[] 0 setdash
14 2.75 m
14 2.75 m
13.9455 2.75 l
stroke
14 4.25 m
14 4.25 m
13.9455 4.25 l
stroke
14 5.75 m
14 5.75 m
13.9455 5.75 l
stroke
14 7.25 m
14 7.25 m
13.9455 7.25 l
stroke
14 8.75 m
14 8.75 m
13.9455 8.75 l
stroke
14 10.25 m
14 10.25 m
13.9455 10.25 l
stroke
14 11.75 m
14 11.75 m
13.9455 11.75 l
stroke
14 13.25 m
14 13.25 m
13.9455 13.25 l
stroke
0 setgray
0.02 setlinewidth
[] 0 setdash
0 setgray
[] 0 setdash
14 3.5 m
14 3.5 m
13.891 3.5 l
stroke
14 5 m
14 5 m
13.891 5 l
stroke
14 6.5 m
14 6.5 m
13.891 6.5 l
stroke
14 8 m
14 8 m
13.891 8 l
stroke
14 9.5 m
14 9.5 m
13.891 9.5 l
stroke
14 11 m
14 11 m
13.891 11 l
stroke
14 12.5 m
14 12.5 m
13.891 12.5 l
stroke
0 setgray
0.02 setlinewidth
[] 0 setdash
0 setgray
[] 0 setdash
1 setlinecap
14 2 m
14 14 l
stroke
0 setgray
0.02 setlinewidth
[] 0 setdash
0 setlinecap
0 setgray
[] 0 setdash
2 2 m
0 setgray
[] 0 setdash
4 2 m
4 2 m
4 2.0545 l
stroke
6.85714 2 m
6.85714 2 m
6.85714 2.0545 l
stroke
9.71429 2 m
9.71429 2 m
9.71429 2.0545 l
stroke
12.5714 2 m
12.5714 2 m
12.5714 2.0545 l
stroke
0 setgray
0.02 setlinewidth
[] 0 setdash
0 setgray
[] 0 setdash
2.57143 2 m
2.57143 2 m
2.57143 2.10899 l
stroke
5.42857 2 m
5.42857 2 m
5.42857 2.10899 l
stroke
8.28571 2 m
8.28571 2 m
8.28571 2.10899 l
stroke
11.1429 2 m
11.1429 2 m
11.1429 2.10899 l
stroke
0 setgray
0.02 setlinewidth
[] 0 setdash
0 setgray
[] 0 setdash
1 setlinecap
2 2 m
14 2 l
stroke
0 setgray
0.02 setlinewidth
[] 0 setdash
0 setlinecap
0 setgray
[] 0 setdash
2.57143 1.488 m
2.47143 1.488 m
2.47143 1.488 m
1 setlinejoin
 newpath 2.57823 1.7572 moveto
2.57823 1.7572 moveto
2.61623 1.7544 2.64143 1.7196 2.64823 1.6844 curveto
2.65183 1.6684 2.65263 1.6532 2.65423 1.6372 curveto
2.65423 1.5964 l
2.65223 1.5548 2.64223 1.5 2.59703 1.4832 curveto
2.55783 1.4676 2.51183 1.492 2.50023 1.532 curveto
2.49143 1.5532 2.49063 1.5748 2.48863 1.5964 curveto
2.48863 1.6372 l
2.49063 1.6788 2.49943 1.734 2.54423 1.7524 curveto
2.54623 1.7532 l
2.54783 1.7536 l
2.54983 1.7544 l
2.55583 1.756 l
2.55943 1.7568 l
2.56383 1.7568 l
2.56463 1.7572 l
2.57823 1.7572 l
closepath
closepath
2.56583 1.7328 moveto
2.53223 1.7288 2.52223 1.6884 2.51983 1.6612 curveto
2.51983 1.6504 l
2.51903 1.6496 l
2.51903 1.594 l
2.52143 1.5652 2.52343 1.528 2.54983 1.5088 curveto
2.57423 1.492 2.60663 1.5108 2.61343 1.5368 curveto
2.62063 1.556 2.62223 1.5748 2.62383 1.594 curveto
2.62383 1.6496 l
2.62143 1.6788 2.61743 1.7196 2.58383 1.7312 curveto
2.58103 1.732 l
2.58023 1.7328 l
2.57663 1.7328 l
2.57583 1.7336 l
2.56663 1.7336 l
2.56583 1.7328 l
closepath
closepath
gsave
0 setgray
fill
0 setgray
grestore
0 setlinejoin
0.02 setlinewidth
0 setgray
2.57143 1.488 m
5.42857 1.488 m
5.32857 1.488 m
5.32857 1.488 m
1 setlinejoin
 newpath 5.49457 1.7488 moveto
5.49457 1.7488 moveto
5.49457 1.724 l
5.39057 1.724 l
5.38977 1.7236 l
5.38977 1.6416 l
5.39937 1.648 5.41297 1.6564 5.42577 1.6568 curveto
5.47097 1.6616 5.50577 1.6172 5.50777 1.576 curveto
5.51417 1.5236 5.46497 1.4716 5.41217 1.4796 curveto
5.38577 1.4804 5.36017 1.496 5.34497 1.5176 curveto
5.34937 1.5236 5.35297 1.534 5.35817 1.5376 curveto
5.37697 1.5008 5.43777 1.486 5.46217 1.5248 curveto
5.47777 1.554 5.47737 1.5912 5.45937 1.6192 curveto
5.43857 1.646 5.39737 1.6296 5.38777 1.6012 curveto
5.36177 1.6012 l
5.36177 1.7488 l
5.49457 1.7488 l
closepath
closepath
gsave
0 setgray
fill
0 setgray
grestore
0 setlinejoin
0.02 setlinewidth
0 setgray
5.42857 1.488 m
8.28571 1.488 m
8.08571 1.488 m
8.08571 1.488 m
1 setlinejoin
 newpath 8.20491 1.7572 moveto
8.20491 1.7572 moveto
8.20491 1.5104 l
8.20531 1.5096 l
8.25451 1.5096 l
8.25451 1.4876 l
8.12451 1.4876 l
8.12451 1.5096 l
8.17371 1.5096 l
8.17451 1.5104 l
8.17451 1.7176 l
8.15771 1.712 8.14011 1.7084 8.12251 1.7088 curveto
8.12251 1.7312 l
8.14891 1.7308 8.17771 1.738 8.19771 1.7572 curveto
8.20491 1.7572 l
closepath
closepath
gsave
0 setgray
fill
0 setgray
grestore
0 setlinejoin
0.02 setlinewidth
0 setgray
8.28571 1.488 m
1 setlinejoin
 newpath 8.39251 1.7572 moveto
8.39251 1.7572 moveto
8.43051 1.7544 8.45571 1.7196 8.46251 1.6844 curveto
8.46611 1.6684 8.46691 1.6532 8.46851 1.6372 curveto
8.46851 1.5964 l
8.46651 1.5548 8.45651 1.5 8.41131 1.4832 curveto
8.37211 1.4676 8.32611 1.492 8.31451 1.532 curveto
8.30571 1.5532 8.30491 1.5748 8.30291 1.5964 curveto
8.30291 1.6372 l
8.30491 1.6788 8.31371 1.734 8.35851 1.7524 curveto
8.36051 1.7532 l
8.36211 1.7536 l
8.36411 1.7544 l
8.37011 1.756 l
8.37371 1.7568 l
8.37811 1.7568 l
8.37891 1.7572 l
8.39251 1.7572 l
closepath
closepath
8.38011 1.7328 moveto
8.34651 1.7288 8.33651 1.6884 8.33411 1.6612 curveto
8.33411 1.6504 l
8.33331 1.6496 l
8.33331 1.594 l
8.33571 1.5652 8.33771 1.528 8.36411 1.5088 curveto
8.38851 1.492 8.42091 1.5108 8.42771 1.5368 curveto
8.43491 1.556 8.43651 1.5748 8.43811 1.594 curveto
8.43811 1.6496 l
8.43571 1.6788 8.43171 1.7196 8.39811 1.7312 curveto
8.39531 1.732 l
8.39451 1.7328 l
8.39091 1.7328 l
8.39011 1.7336 l
8.38091 1.7336 l
8.38011 1.7328 l
closepath
closepath
gsave
0 setgray
fill
0 setgray
grestore
0 setlinejoin
0.02 setlinewidth
0 setgray
8.28571 1.488 m
11.1429 1.488 m
10.9429 1.488 m
10.9429 1.488 m
1 setlinejoin
 newpath 11.0621 1.7572 moveto
11.0621 1.7572 moveto
11.0621 1.5104 l
11.0625 1.5096 l
11.1117 1.5096 l
11.1117 1.4876 l
10.9817 1.4876 l
10.9817 1.5096 l
11.0309 1.5096 l
11.0317 1.5104 l
11.0317 1.7176 l
11.0149 1.712 10.9973 1.7084 10.9797 1.7088 curveto
10.9797 1.7312 l
11.0061 1.7308 11.0349 1.738 11.0549 1.7572 curveto
11.0621 1.7572 l
closepath
closepath
gsave
0 setgray
fill
0 setgray
grestore
0 setlinejoin
0.02 setlinewidth
0 setgray
11.1429 1.488 m
1 setlinejoin
 newpath 11.3089 1.7488 moveto
11.3089 1.7488 moveto
11.3089 1.724 l
11.2049 1.724 l
11.2041 1.7236 l
11.2041 1.6416 l
11.2137 1.648 11.2273 1.6564 11.2401 1.6568 curveto
11.2853 1.6616 11.3201 1.6172 11.3221 1.576 curveto
11.3285 1.5236 11.2793 1.4716 11.2265 1.4796 curveto
11.2001 1.4804 11.1745 1.496 11.1593 1.5176 curveto
11.1637 1.5236 11.1673 1.534 11.1725 1.5376 curveto
11.1913 1.5008 11.2521 1.486 11.2765 1.5248 curveto
11.2921 1.554 11.2917 1.5912 11.2737 1.6192 curveto
11.2529 1.646 11.2117 1.6296 11.2021 1.6012 curveto
11.1761 1.6012 l
11.1761 1.7488 l
11.3089 1.7488 l
closepath
closepath
gsave
0 setgray
fill
0 setgray
grestore
0 setlinejoin
0.02 setlinewidth
0 setgray
11.1429 1.488 m
14 1.488 m
13.8 1.488 m
13.8 1.488 m
1 setlinejoin
 newpath 13.9024 1.7572 moveto
13.9024 1.7572 moveto
13.9488 1.756 13.9856 1.7084 13.9784 1.6636 curveto
13.9736 1.6188 13.9316 1.5932 13.9016 1.5652 curveto
13.8888 1.552 l
13.8872 1.5512 l
13.8712 1.5356 l
13.87 1.5348 l
13.854 1.5188 l
13.8524 1.518 l
13.8488 1.5144 l
13.8496 1.514 l
13.9792 1.514 l
13.9792 1.4876 l
13.8208 1.4876 l
13.8208 1.5116 l
13.8852 1.576 l
13.916 1.6028 13.952 1.6376 13.9464 1.6816 curveto
13.9432 1.7072 13.9216 1.7308 13.8952 1.7328 curveto
13.8684 1.7368 13.8448 1.7156 13.8388 1.69 curveto
13.838 1.6888 l
13.8372 1.686 l
13.836 1.6816 l
13.8336 1.6728 l
13.8332 1.6708 l
13.8276 1.6776 13.8216 1.6848 13.8172 1.6924 curveto
13.8252 1.7252 13.8516 1.756 13.8864 1.7572 curveto
13.9024 1.7572 l
closepath
closepath
gsave
0 setgray
fill
0 setgray
grestore
0 setlinejoin
0.02 setlinewidth
0 setgray
14 1.488 m
1 setlinejoin
 newpath 14.1068 1.7572 moveto
14.1068 1.7572 moveto
14.1448 1.7544 14.17 1.7196 14.1768 1.6844 curveto
14.1804 1.6684 14.1812 1.6532 14.1828 1.6372 curveto
14.1828 1.5964 l
14.1808 1.5548 14.1708 1.5 14.1256 1.4832 curveto
14.0864 1.4676 14.0404 1.492 14.0288 1.532 curveto
14.02 1.5532 14.0192 1.5748 14.0172 1.5964 curveto
14.0172 1.6372 l
14.0192 1.6788 14.028 1.734 14.0728 1.7524 curveto
14.0748 1.7532 l
14.0764 1.7536 l
14.0784 1.7544 l
14.0844 1.756 l
14.088 1.7568 l
14.0924 1.7568 l
14.0932 1.7572 l
14.1068 1.7572 l
closepath
closepath
14.0944 1.7328 moveto
14.0608 1.7288 14.0508 1.6884 14.0484 1.6612 curveto
14.0484 1.6504 l
14.0476 1.6496 l
14.0476 1.594 l
14.05 1.5652 14.052 1.528 14.0784 1.5088 curveto
14.1028 1.492 14.1352 1.5108 14.142 1.5368 curveto
14.1492 1.556 14.1508 1.5748 14.1524 1.594 curveto
14.1524 1.6496 l
14.15 1.6788 14.146 1.7196 14.1124 1.7312 curveto
14.1096 1.732 l
14.1088 1.7328 l
14.1052 1.7328 l
14.1044 1.7336 l
14.0952 1.7336 l
14.0944 1.7328 l
closepath
closepath
gsave
0 setgray
fill
0 setgray
grestore
0 setlinejoin
0.02 setlinewidth
0 setgray
14 1.488 m
8 1.2296 m
2.67685 0.7438 m
2.84065 0.7438 m
1 setlinejoin
 newpath 2.99605 1.2268 moveto
2.99605 1.2268 moveto
2.99745 1.224 l
3.07795 1.0623 l
3.15915 0.9006 l
3.17315 0.8726 l
3.17385 0.8684 l
3.19415 0.8285 l
3.19555 0.8243 l
3.20465 0.8068 l
3.20605 0.8026 l
3.20955 0.7956 l
3.21095 0.7914 l
3.21235 0.7893 l
3.21305 0.79 l
3.21305 1.2268 l
3.26625 1.2268 l
3.26625 0.7431 l
3.18085 0.7431 l
3.09965 0.9041 l
3.01845 1.0658 l
3.00375 1.0966 l
3.00235 1.1001 l
2.98205 1.1407 l
2.98065 1.1442 l
2.97155 1.1624 l
2.97085 1.1659 l
2.96665 1.1736 l
2.96525 1.1771 l
2.96455 1.1799 l
2.96315 1.1785 l
2.96315 0.7431 l
2.90995 0.7431 l
2.90995 1.2268 l
closepath
closepath
gsave
0 setgray
fill
0 setgray
grestore
0 setlinejoin
0.02 setlinewidth
0 setgray
3.33625 0.7438 m
1 setlinejoin
 newpath 3.44615 1.0518 moveto
3.44615 1.0518 moveto
3.44615 0.8068 l
3.44685 0.7858 3.46785 0.7739 3.48675 0.7725 curveto
3.52945 0.7662 3.57985 0.7893 3.58755 0.8355 curveto
3.58755 1.0518 l
3.64075 1.0518 l
3.64075 0.7431 l
3.59035 0.7431 l
3.59035 0.7753 l
3.54835 0.7438 3.48815 0.727 3.43425 0.7389 curveto
3.40765 0.7466 3.39435 0.776 3.39295 0.8019 curveto
3.39295 1.0518 l
3.44615 1.0518 l
closepath
closepath
gsave
0 setgray
fill
0 setgray
grestore
0 setlinejoin
0.02 setlinewidth
0 setgray
3.69745 0.7438 m
1 setlinejoin
 newpath 3.91865 1.0595 moveto
3.91865 1.0595 moveto
3.95225 1.0581 3.98655 1.0364 3.99565 1.0014 curveto
4.03135 1.0616 4.12655 1.084 4.17625 1.0294 curveto
4.19025 1.0119 4.19445 0.9874 4.19655 0.9671 curveto
4.19655 0.7431 l
4.14335 0.7431 l
4.14335 0.9608 l
4.14055 0.986 4.12375 1.0133 4.09575 1.0154 curveto
4.06215 1.0266 4.02225 1.0049 4.01175 0.9699 curveto
4.00825 0.9587 l
4.00545 0.9482 l
4.00475 0.9468 l
4.00475 0.9405 l
4.00335 0.9398 l
4.00335 0.9307 l
4.00195 0.9293 l
4.00195 0.7431 l
3.94875 0.7431 l
3.94875 0.9608 l
3.94595 0.986 3.92915 1.0133 3.90045 1.0154 curveto
3.86685 1.0266 3.82695 1.0049 3.81715 0.9699 curveto
3.81365 0.9587 l
3.81085 0.9482 l
3.80945 0.9468 l
3.80945 0.9405 l
3.80805 0.9398 l
3.80805 0.9307 l
3.80735 0.9293 l
3.80735 0.7431 l
3.75415 0.7431 l
3.75415 1.056 l
3.80315 1.056 l
3.80315 1.0077 l
3.82415 1.0301 3.85565 1.0588 3.89205 1.0581 curveto
3.89345 1.0595 l
3.91865 1.0595 l
closepath
closepath
gsave
0 setgray
fill
0 setgray
grestore
0 setlinejoin
0.02 setlinewidth
0 setgray
4.25325 0.7438 m
1 setlinejoin
 newpath 4.36175 1.2268 moveto
4.36175 1.2268 moveto
4.36175 1.0189 l
4.40515 1.0511 4.47515 1.0791 4.52625 1.0434 curveto
4.59065 0.9902 4.60185 0.8957 4.57385 0.8222 curveto
4.55215 0.7641 4.48845 0.72 4.42615 0.7389 curveto
4.40235 0.7438 4.38065 0.7613 4.36385 0.7739 curveto
4.36385 0.7431 l
4.31135 0.7431 l
4.31135 1.2268 l
4.36175 1.2268 l
closepath
closepath
4.42895 1.0168 moveto
4.40305 1.014 4.37855 0.9979 4.36385 0.9762 curveto
4.36385 0.8222 l
4.38205 0.7823 4.43105 0.7648 4.46885 0.7837 curveto
4.53185 0.8082 4.54515 0.8887 4.52835 0.9447 curveto
4.51925 0.9895 4.47305 1.0245 4.42895 1.0168 curveto
closepath
closepath
gsave
0 setgray
fill
0 setgray
grestore
0 setlinejoin
0.02 setlinewidth
0 setgray
4.63335 0.7438 m
1 setlinejoin
 newpath 4.80975 1.0637 moveto
4.80975 1.0637 moveto
4.87555 1.0602 4.91895 0.9944 4.92035 0.9335 curveto
4.92105 0.9321 l
4.92105 0.9181 l
4.92245 0.9167 l
4.92245 0.895 l
4.70615 0.895 l
4.70335 0.8348 4.75795 0.7655 4.82305 0.7774 curveto
4.85595 0.7795 4.89025 0.7949 4.91615 0.8152 curveto
4.91615 0.8089 l
4.91755 0.8082 l
4.91755 0.7942 l
4.91895 0.7928 l
4.91895 0.7788 l
4.92035 0.7774 l
4.92035 0.7711 l
4.85385 0.72 4.74465 0.7207 4.69355 0.7928 curveto
4.62355 0.8789 4.66065 1.0378 4.77685 1.0623 curveto
4.78595 1.0623 l
4.78735 1.0637 l
4.80975 1.0637 l
closepath
closepath
4.78875 1.0203 moveto
4.74605 1.0154 4.71665 0.9713 4.71035 0.9335 curveto
4.88325 0.9335 l
4.88185 0.9727 4.85035 1.0175 4.80765 1.0217 curveto
4.79015 1.0217 l
4.78875 1.0203 l
closepath
closepath
gsave
0 setgray
fill
0 setgray
grestore
0 setlinejoin
0.02 setlinewidth
0 setgray
4.94415 0.7438 m
1 setlinejoin
 newpath 5.17165 1.0595 moveto
5.17165 1.0595 moveto
5.17165 1.014 l
5.11215 1.0154 5.05825 0.965 5.05265 0.9069 curveto
5.05265 0.7431 l
5.00225 0.7431 l
5.00225 1.056 l
5.04845 1.056 l
5.04845 0.9937 l
5.06595 1.0119 5.08835 1.0385 5.11565 1.0483 curveto
5.12055 1.0511 l
5.13245 1.0546 l
5.14225 1.0574 l
5.14855 1.0581 l
5.15765 1.0581 l
5.15905 1.0595 l
5.17165 1.0595 l
closepath
closepath
gsave
0 setgray
fill
0 setgray
grestore
0 setlinejoin
0.02 setlinewidth
0 setgray
5.34665 0.7438 m
1 setlinejoin
 newpath 5.53355 1.0637 moveto
5.53355 1.0637 moveto
5.63435 1.0553 5.69665 0.9391 5.66725 0.8474 curveto
5.64415 0.755 5.52865 0.7032 5.44745 0.755 curveto
5.34105 0.8131 5.34595 0.9874 5.45095 1.0448 curveto
5.45235 1.0455 l
5.46495 1.0518 l
5.46915 1.0532 l
5.47125 1.0546 l
5.48315 1.0581 l
5.49295 1.0609 l
5.49925 1.0623 l
5.50835 1.0623 l
5.50975 1.0637 l
5.53355 1.0637 l
closepath
closepath
5.50975 1.0203 moveto
5.44605 1.0147 5.41385 0.9419 5.42365 0.8866 curveto
5.42295 0.8299 5.47405 0.769 5.53355 0.7802 curveto
5.60565 0.7886 5.63225 0.8768 5.61685 0.937 curveto
5.60985 0.9874 5.55945 1.0294 5.50975 1.0203 curveto
closepath
closepath
gsave
0 setgray
fill
0 setgray
grestore
0 setlinejoin
0.02 setlinewidth
0 setgray
5.69665 0.7438 m
1 setlinejoin
 newpath 5.89755 1.2345 moveto
5.89755 1.2345 moveto
5.89895 1.2331 l
5.91015 1.2331 l
5.91155 1.2317 l
5.91785 1.2317 l
5.93045 1.2289 l
5.93535 1.2275 l
5.93815 1.2268 l
5.93815 1.1813 l
5.89965 1.1967 5.84365 1.2016 5.82055 1.1596 curveto
5.81915 1.1561 l
5.81775 1.1505 l
5.81635 1.1491 l
5.81635 1.0532 l
5.81775 1.0518 l
5.89615 1.0518 l
5.89615 1.0126 l
5.82055 1.0126 l
5.81915 1.0119 l
5.81915 0.7431 l
5.76805 0.7431 l
5.76805 1.0119 l
5.76735 1.0126 l
5.71555 1.0126 l
5.71555 1.0518 l
5.76735 1.0518 l
5.76805 1.0532 l
5.76805 1.1302 l
5.77295 1.1925 5.83455 1.2436 5.89755 1.2345 curveto
closepath
closepath
gsave
0 setgray
fill
0 setgray
grestore
0 setlinejoin
0.02 setlinewidth
0 setgray
6.07395 0.7438 m
1 setlinejoin
 newpath 6.29515 1.0595 moveto
6.29515 1.0595 moveto
6.32875 1.0581 6.36305 1.0364 6.37215 1.0014 curveto
6.40785 1.0616 6.50305 1.084 6.55275 1.0294 curveto
6.56675 1.0119 6.57095 0.9874 6.57305 0.9671 curveto
6.57305 0.7431 l
6.51985 0.7431 l
6.51985 0.9608 l
6.51705 0.986 6.50025 1.0133 6.47225 1.0154 curveto
6.43865 1.0266 6.39875 1.0049 6.38825 0.9699 curveto
6.38475 0.9587 l
6.38195 0.9482 l
6.38125 0.9468 l
6.38125 0.9405 l
6.37985 0.9398 l
6.37985 0.9307 l
6.37845 0.9293 l
6.37845 0.7431 l
6.32525 0.7431 l
6.32525 0.9608 l
6.32245 0.986 6.30565 1.0133 6.27695 1.0154 curveto
6.24335 1.0266 6.20345 1.0049 6.19365 0.9699 curveto
6.19015 0.9587 l
6.18735 0.9482 l
6.18595 0.9468 l
6.18595 0.9405 l
6.18455 0.9398 l
6.18455 0.9307 l
6.18385 0.9293 l
6.18385 0.7431 l
6.13065 0.7431 l
6.13065 1.056 l
6.17965 1.056 l
6.17965 1.0077 l
6.20065 1.0301 6.23215 1.0588 6.26855 1.0581 curveto
6.26995 1.0595 l
6.29515 1.0595 l
closepath
closepath
gsave
0 setgray
fill
0 setgray
grestore
0 setlinejoin
0.02 setlinewidth
0 setgray
6.62975 0.7438 m
1 setlinejoin
 newpath 6.73965 1.0518 moveto
6.73965 1.0518 moveto
6.73965 0.8068 l
6.74035 0.7858 6.76135 0.7739 6.78025 0.7725 curveto
6.82295 0.7662 6.87335 0.7893 6.88105 0.8355 curveto
6.88105 1.0518 l
6.93425 1.0518 l
6.93425 0.7431 l
6.88385 0.7431 l
6.88385 0.7753 l
6.84185 0.7438 6.78165 0.727 6.72775 0.7389 curveto
6.70115 0.7466 6.68785 0.776 6.68645 0.8019 curveto
6.68645 1.0518 l
6.73965 1.0518 l
closepath
closepath
gsave
0 setgray
fill
0 setgray
grestore
0 setlinejoin
0.02 setlinewidth
0 setgray
6.99095 0.7438 m
1 setlinejoin
 newpath 7.11345 1.1407 moveto
7.11345 1.1407 moveto
7.11345 1.0532 l
7.11485 1.0518 l
7.21075 1.0518 l
7.21075 1.0126 l
7.11485 1.0126 l
7.11345 1.0119 l
7.11345 0.8222 l
7.11625 0.8054 7.12185 0.7837 7.14145 0.7788 curveto
7.16595 0.7774 7.19115 0.7865 7.21075 0.8019 curveto
7.21215 0.7991 l
7.21285 0.7942 l
7.21425 0.79 l
7.21565 0.7851 l
7.21705 0.7816 l
7.21985 0.7711 l
7.22825 0.755 7.20305 0.7536 7.19325 0.7473 curveto
7.16105 0.7389 7.12675 0.7277 7.09455 0.7417 curveto
7.07145 0.7557 7.06655 0.7851 7.06375 0.8089 curveto
7.06375 1.0119 l
7.06235 1.0126 l
7.00425 1.0126 l
7.00425 1.0518 l
7.06515 1.0518 l
7.06655 1.0532 l
7.06655 1.1407 l
7.11345 1.1407 l
closepath
closepath
gsave
0 setgray
fill
0 setgray
grestore
0 setlinejoin
0.02 setlinewidth
0 setgray
7.24365 0.7438 m
1 setlinejoin
 newpath 7.42145 1.0637 moveto
7.42145 1.0637 moveto
7.47395 1.0588 7.51805 1.0112 7.52295 0.9594 curveto
7.52295 0.7431 l
7.47255 0.7431 l
7.47255 0.7662 l
7.44385 0.7494 7.40535 0.7361 7.37105 0.7368 curveto
7.32345 0.7235 7.27865 0.7655 7.27585 0.8117 curveto
7.27025 0.8691 7.33325 0.8943 7.38015 0.9041 curveto
7.41025 0.9104 7.43965 0.9104 7.46975 0.9139 curveto
7.47255 0.9524 7.46975 0.9979 7.43195 1.0182 curveto
7.38785 1.0322 7.33955 1.014 7.30245 0.9874 curveto
7.30245 0.9951 l
7.30175 0.9965 l
7.30175 1.0105 l
7.30035 1.0119 l
7.30035 1.0252 l
7.29895 1.0266 l
7.29895 1.0329 l
7.33535 1.0574 7.37875 1.0658 7.42145 1.0637 curveto
closepath
closepath
7.46695 0.8775 moveto
7.42355 0.8775 7.38015 0.8719 7.34095 0.8495 curveto
7.31225 0.8313 7.32835 0.79 7.35705 0.783 curveto
7.39345 0.7697 7.44315 0.7753 7.46555 0.8103 curveto
7.46695 0.8145 l
7.46835 0.8194 l
7.46975 0.8208 l
7.46975 0.8775 l
7.46835 0.8789 l
7.46695 0.8775 l
closepath
closepath
gsave
0 setgray
fill
0 setgray
grestore
0 setlinejoin
0.02 setlinewidth
0 setgray
7.57965 0.7438 m
1 setlinejoin
 newpath 7.70215 1.1407 moveto
7.70215 1.1407 moveto
7.70215 1.0532 l
7.70355 1.0518 l
7.79945 1.0518 l
7.79945 1.0126 l
7.70355 1.0126 l
7.70215 1.0119 l
7.70215 0.8222 l
7.70495 0.8054 7.71055 0.7837 7.73015 0.7788 curveto
7.75465 0.7774 7.77985 0.7865 7.79945 0.8019 curveto
7.80085 0.7991 l
7.80155 0.7942 l
7.80295 0.79 l
7.80435 0.7851 l
7.80575 0.7816 l
7.80855 0.7711 l
7.81695 0.755 7.79175 0.7536 7.78195 0.7473 curveto
7.74975 0.7389 7.71545 0.7277 7.68325 0.7417 curveto
7.66015 0.7557 7.65525 0.7851 7.65245 0.8089 curveto
7.65245 1.0119 l
7.65105 1.0126 l
7.59295 1.0126 l
7.59295 1.0518 l
7.65385 1.0518 l
7.65525 1.0532 l
7.65525 1.1407 l
7.70215 1.1407 l
closepath
closepath
gsave
0 setgray
fill
0 setgray
grestore
0 setlinejoin
0.02 setlinewidth
0 setgray
7.83235 0.7438 m
1 setlinejoin
 newpath 7.94575 1.2177 moveto
7.94575 1.2177 moveto
7.94575 1.1568 l
7.88485 1.1568 l
7.88485 1.2177 l
7.94575 1.2177 l
closepath
closepath
7.94085 1.0518 moveto
7.94085 0.7431 l
7.89045 0.7431 l
7.89045 1.0518 l
7.94085 1.0518 l
closepath
closepath
gsave
0 setgray
fill
0 setgray
grestore
0 setlinejoin
0.02 setlinewidth
0 setgray
7.99895 0.7438 m
1 setlinejoin
 newpath 8.18585 1.0637 moveto
8.18585 1.0637 moveto
8.28665 1.0553 8.34895 0.9391 8.31955 0.8474 curveto
8.29645 0.755 8.18095 0.7032 8.09975 0.755 curveto
7.99335 0.8131 7.99825 0.9874 8.10325 1.0448 curveto
8.10465 1.0455 l
8.11725 1.0518 l
8.12145 1.0532 l
8.12355 1.0546 l
8.13545 1.0581 l
8.14525 1.0609 l
8.15155 1.0623 l
8.16065 1.0623 l
8.16205 1.0637 l
8.18585 1.0637 l
closepath
closepath
8.16205 1.0203 moveto
8.09835 1.0147 8.06615 0.9419 8.07595 0.8866 curveto
8.07525 0.8299 8.12635 0.769 8.18585 0.7802 curveto
8.25795 0.7886 8.28455 0.8768 8.26915 0.937 curveto
8.26215 0.9874 8.21175 1.0294 8.16205 1.0203 curveto
closepath
closepath
gsave
0 setgray
fill
0 setgray
grestore
0 setlinejoin
0.02 setlinewidth
0 setgray
8.34895 0.7438 m
1 setlinejoin
 newpath 8.57015 1.0595 moveto
8.57015 1.0595 moveto
8.61705 1.0602 8.65555 1.0147 8.65205 0.9685 curveto
8.65345 0.9671 l
8.65345 0.7431 l
8.60025 0.7431 l
8.60025 0.9608 l
8.59745 0.986 8.58065 1.0133 8.55195 1.0154 curveto
8.51835 1.0266 8.47845 1.0049 8.46865 0.9699 curveto
8.46515 0.9587 l
8.46235 0.9482 l
8.46095 0.9468 l
8.46095 0.9405 l
8.45955 0.9398 l
8.45955 0.9307 l
8.45885 0.9293 l
8.45885 0.7431 l
8.40565 0.7431 l
8.40565 1.056 l
8.45465 1.056 l
8.45465 1.0077 l
8.47565 1.0301 8.50715 1.0588 8.54355 1.0581 curveto
8.54495 1.0595 l
8.57015 1.0595 l
closepath
closepath
gsave
0 setgray
fill
0 setgray
grestore
0 setlinejoin
0.02 setlinewidth
0 setgray
8.71015 0.7438 m
1 setlinejoin
 newpath 8.86765 1.0637 moveto
8.86765 1.0637 moveto
8.89355 1.0595 8.92785 1.0567 8.94885 1.0392 curveto
8.94535 1.0266 8.94535 1.0098 8.93975 0.9979 curveto
8.89705 1.021 8.84455 1.0343 8.79835 1.0126 curveto
8.76825 0.9909 8.78365 0.944 8.81865 0.9384 curveto
8.86695 0.9286 8.92365 0.9223 8.95025 0.8747 curveto
8.98105 0.8229 8.94885 0.748 8.88795 0.7389 curveto
8.83475 0.7291 8.77805 0.7382 8.72975 0.7662 curveto
8.73325 0.7809 8.73465 0.7984 8.73885 0.8117 curveto
8.78575 0.7823 8.84945 0.7613 8.89985 0.7928 curveto
8.92575 0.8173 8.91105 0.8621 8.87675 0.8698 curveto
8.82985 0.881 8.77315 0.8852 8.74515 0.9307 curveto
8.71085 0.9846 8.75495 1.0616 8.81865 1.0609 curveto
8.82005 1.0623 l
8.82985 1.0623 l
8.83125 1.0637 l
8.86765 1.0637 l
closepath
closepath
gsave
0 setgray
fill
0 setgray
grestore
0 setlinejoin
0.02 setlinewidth
0 setgray
9.14205 0.7438 m
1 setlinejoin
 newpath 9.25545 1.2177 moveto
9.25545 1.2177 moveto
9.25545 1.1568 l
9.19455 1.1568 l
9.19455 1.2177 l
9.25545 1.2177 l
closepath
closepath
9.25055 1.0518 moveto
9.25055 0.7431 l
9.20015 0.7431 l
9.20015 1.0518 l
9.25055 1.0518 l
closepath
closepath
gsave
0 setgray
fill
0 setgray
grestore
0 setlinejoin
0.02 setlinewidth
0 setgray
9.30865 0.7438 m
1 setlinejoin
 newpath 9.52985 1.0595 moveto
9.52985 1.0595 moveto
9.57675 1.0602 9.61525 1.0147 9.61175 0.9685 curveto
9.61315 0.9671 l
9.61315 0.7431 l
9.55995 0.7431 l
9.55995 0.9608 l
9.55715 0.986 9.54035 1.0133 9.51165 1.0154 curveto
9.47805 1.0266 9.43815 1.0049 9.42835 0.9699 curveto
9.42485 0.9587 l
9.42205 0.9482 l
9.42065 0.9468 l
9.42065 0.9405 l
9.41925 0.9398 l
9.41925 0.9307 l
9.41855 0.9293 l
9.41855 0.7431 l
9.36535 0.7431 l
9.36535 1.056 l
9.41435 1.056 l
9.41435 1.0077 l
9.43535 1.0301 9.46685 1.0588 9.50325 1.0581 curveto
9.50465 1.0595 l
9.52985 1.0595 l
closepath
closepath
gsave
0 setgray
fill
0 setgray
grestore
0 setlinejoin
0.02 setlinewidth
0 setgray
9.83365 0.7438 m
1 setlinejoin
 newpath 10.0206 1.0637 moveto
10.0206 1.0637 moveto
10.1214 1.0553 10.1837 0.9391 10.1543 0.8474 curveto
10.1312 0.755 10.0157 0.7032 9.93445 0.755 curveto
9.82805 0.8131 9.83295 0.9874 9.93795 1.0448 curveto
9.93935 1.0455 l
9.95195 1.0518 l
9.95615 1.0532 l
9.95825 1.0546 l
9.97015 1.0581 l
9.97995 1.0609 l
9.98625 1.0623 l
9.99535 1.0623 l
9.99675 1.0637 l
10.0206 1.0637 l
closepath
closepath
9.99675 1.0203 moveto
9.93305 1.0147 9.90085 0.9419 9.91065 0.8866 curveto
9.90995 0.8299 9.96105 0.769 10.0206 0.7802 curveto
10.0927 0.7886 10.1193 0.8768 10.1039 0.937 curveto
10.0969 0.9874 10.0465 1.0294 9.99675 1.0203 curveto
closepath
closepath
gsave
0 setgray
fill
0 setgray
grestore
0 setlinejoin
0.02 setlinewidth
0 setgray
10.1837 0.7438 m
1 setlinejoin
 newpath 10.2936 1.0518 moveto
10.2936 1.0518 moveto
10.2936 0.8068 l
10.2943 0.7858 10.3153 0.7739 10.3342 0.7725 curveto
10.3769 0.7662 10.4273 0.7893 10.435 0.8355 curveto
10.435 1.0518 l
10.4882 1.0518 l
10.4882 0.7431 l
10.4378 0.7431 l
10.4378 0.7753 l
10.3958 0.7438 10.3356 0.727 10.2817 0.7389 curveto
10.2551 0.7466 10.2418 0.776 10.2404 0.8019 curveto
10.2404 1.0518 l
10.2936 1.0518 l
closepath
closepath
gsave
0 setgray
fill
0 setgray
grestore
0 setlinejoin
0.02 setlinewidth
0 setgray
10.5449 0.7438 m
1 setlinejoin
 newpath 10.6674 1.1407 moveto
10.6674 1.1407 moveto
10.6674 1.0532 l
10.6688 1.0518 l
10.7647 1.0518 l
10.7647 1.0126 l
10.6688 1.0126 l
10.6674 1.0119 l
10.6674 0.8222 l
10.6702 0.8054 10.6758 0.7837 10.6954 0.7788 curveto
10.7199 0.7774 10.7451 0.7865 10.7647 0.8019 curveto
10.7661 0.7991 l
10.7668 0.7942 l
10.7682 0.79 l
10.7696 0.7851 l
10.771 0.7816 l
10.7738 0.7711 l
10.7822 0.755 10.757 0.7536 10.7472 0.7473 curveto
10.715 0.7389 10.6807 0.7277 10.6485 0.7417 curveto
10.6254 0.7557 10.6205 0.7851 10.6177 0.8089 curveto
10.6177 1.0119 l
10.6163 1.0126 l
10.5582 1.0126 l
10.5582 1.0518 l
10.6191 1.0518 l
10.6205 1.0532 l
10.6205 1.1407 l
10.6674 1.1407 l
closepath
closepath
gsave
0 setgray
fill
0 setgray
grestore
0 setlinejoin
0.02 setlinewidth
0 setgray
10.7976 0.7438 m
1 setlinejoin
 newpath 11.0335 1.0595 moveto
11.0335 1.0595 moveto
11.0993 1.0469 11.1287 0.9727 11.1322 0.9139 curveto
11.1392 0.8411 11.1007 0.7529 11.0223 0.7368 curveto
10.9824 0.7298 10.9376 0.7445 10.9096 0.7753 curveto
10.9082 0.7739 l
10.9082 0.6066 l
10.8557 0.6066 l
10.8557 1.0518 l
10.9061 1.0518 l
10.9061 1.0182 l
10.9327 1.0392 10.9733 1.0574 11.0097 1.0595 curveto
closepath
closepath
10.9733 1.014 moveto
10.9474 1.0119 10.9229 0.9958 10.9082 0.9734 curveto
10.9082 0.8222 l
10.9257 0.7851 10.9712 0.7648 11.0083 0.783 curveto
11.1028 0.8201 11.1035 0.9783 11.0062 1.0119 curveto
11.0006 1.0126 l
10.9943 1.014 l
10.9936 1.0154 l
10.974 1.0154 l
10.9733 1.014 l
closepath
closepath
gsave
0 setgray
fill
0 setgray
grestore
0 setlinejoin
0.02 setlinewidth
0 setgray
11.1588 0.7438 m
1 setlinejoin
 newpath 11.2687 1.0518 moveto
11.2687 1.0518 moveto
11.2687 0.8068 l
11.2694 0.7858 11.2904 0.7739 11.3093 0.7725 curveto
11.352 0.7662 11.4024 0.7893 11.4101 0.8355 curveto
11.4101 1.0518 l
11.4633 1.0518 l
11.4633 0.7431 l
11.4129 0.7431 l
11.4129 0.7753 l
11.3709 0.7438 11.3107 0.727 11.2568 0.7389 curveto
11.2302 0.7466 11.2169 0.776 11.2155 0.8019 curveto
11.2155 1.0518 l
11.2687 1.0518 l
closepath
closepath
gsave
0 setgray
fill
0 setgray
grestore
0 setlinejoin
0.02 setlinewidth
0 setgray
11.52 0.7438 m
1 setlinejoin
 newpath 11.6425 1.1407 moveto
11.6425 1.1407 moveto
11.6425 1.0532 l
11.6439 1.0518 l
11.7398 1.0518 l
11.7398 1.0126 l
11.6439 1.0126 l
11.6425 1.0119 l
11.6425 0.8222 l
11.6453 0.8054 11.6509 0.7837 11.6705 0.7788 curveto
11.695 0.7774 11.7202 0.7865 11.7398 0.8019 curveto
11.7412 0.7991 l
11.7419 0.7942 l
11.7433 0.79 l
11.7447 0.7851 l
11.7461 0.7816 l
11.7489 0.7711 l
11.7573 0.755 11.7321 0.7536 11.7223 0.7473 curveto
11.6901 0.7389 11.6558 0.7277 11.6236 0.7417 curveto
11.6005 0.7557 11.5956 0.7851 11.5928 0.8089 curveto
11.5928 1.0119 l
11.5914 1.0126 l
11.5333 1.0126 l
11.5333 1.0518 l
11.5942 1.0518 l
11.5956 1.0532 l
11.5956 1.1407 l
11.6425 1.1407 l
closepath
closepath
gsave
0 setgray
fill
0 setgray
grestore
0 setlinejoin
0.02 setlinewidth
0 setgray
11.9365 0.7438 m
1 setlinejoin
 newpath 12.1346 1.0637 moveto
12.1346 1.0637 moveto
12.1647 1.0616 12.2011 1.0511 12.2235 1.0308 curveto
12.2193 1.0175 12.2193 1.0007 12.2144 0.9888 curveto
12.1633 1.0245 12.0814 1.0378 12.0401 0.9811 curveto
12.0002 0.9216 12.0065 0.825 12.0737 0.7879 curveto
12.1234 0.7669 12.1808 0.7858 12.2235 0.8152 curveto
12.2235 0.8089 l
12.2242 0.8082 l
12.2207 0.7928 12.2361 0.7718 12.2179 0.7634 curveto
12.1486 0.72 12.045 0.7235 11.9953 0.7956 curveto
11.9253 0.8845 11.9722 1.0413 12.0891 1.0623 curveto
12.0982 1.0623 l
12.0996 1.0637 l
12.1346 1.0637 l
closepath
closepath
gsave
0 setgray
fill
0 setgray
grestore
0 setlinejoin
0.02 setlinewidth
0 setgray
12.2473 0.7438 m
1 setlinejoin
 newpath 12.4237 1.0637 moveto
12.4237 1.0637 moveto
12.4895 1.0602 12.5329 0.9944 12.5343 0.9335 curveto
12.535 0.9321 l
12.535 0.9181 l
12.5364 0.9167 l
12.5364 0.895 l
12.3201 0.895 l
12.3173 0.8348 12.3719 0.7655 12.437 0.7774 curveto
12.4699 0.7795 12.5042 0.7949 12.5301 0.8152 curveto
12.5301 0.8089 l
12.5315 0.8082 l
12.5315 0.7942 l
12.5329 0.7928 l
12.5329 0.7788 l
12.5343 0.7774 l
12.5343 0.7711 l
12.4678 0.72 12.3586 0.7207 12.3075 0.7928 curveto
12.2375 0.8789 12.2746 1.0378 12.3908 1.0623 curveto
12.3999 1.0623 l
12.4013 1.0637 l
12.4237 1.0637 l
closepath
closepath
12.4027 1.0203 moveto
12.36 1.0154 12.3306 0.9713 12.3243 0.9335 curveto
12.4972 0.9335 l
12.4958 0.9727 12.4643 1.0175 12.4216 1.0217 curveto
12.4041 1.0217 l
12.4027 1.0203 l
closepath
closepath
gsave
0 setgray
fill
0 setgray
grestore
0 setlinejoin
0.02 setlinewidth
0 setgray
12.5581 0.7438 m
1 setlinejoin
 newpath 12.6666 1.2268 moveto
12.6666 1.2268 moveto
12.6666 0.7431 l
12.6162 0.7431 l
12.6162 1.2268 l
12.6666 1.2268 l
closepath
closepath
gsave
0 setgray
fill
0 setgray
grestore
0 setlinejoin
0.02 setlinewidth
0 setgray
12.7247 0.7438 m
1 setlinejoin
 newpath 12.8332 1.2268 moveto
12.8332 1.2268 moveto
12.8332 0.7431 l
12.7828 0.7431 l
12.7828 1.2268 l
12.8332 1.2268 l
closepath
closepath
gsave
0 setgray
fill
0 setgray
grestore
0 setlinejoin
0.02 setlinewidth
0 setgray
12.8913 0.7438 m
1 setlinejoin
 newpath 13.0488 1.0637 moveto
13.0488 1.0637 moveto
13.0747 1.0595 13.109 1.0567 13.13 1.0392 curveto
13.1265 1.0266 13.1265 1.0098 13.1209 0.9979 curveto
13.0782 1.021 13.0257 1.0343 12.9795 1.0126 curveto
12.9494 0.9909 12.9648 0.944 12.9998 0.9384 curveto
13.0481 0.9286 13.1048 0.9223 13.1314 0.8747 curveto
13.1622 0.8229 13.13 0.748 13.0691 0.7389 curveto
13.0159 0.7291 12.9592 0.7382 12.9109 0.7662 curveto
12.9144 0.7809 12.9158 0.7984 12.92 0.8117 curveto
12.9669 0.7823 13.0306 0.7613 13.081 0.7928 curveto
13.1069 0.8173 13.0922 0.8621 13.0579 0.8698 curveto
13.011 0.881 12.9543 0.8852 12.9263 0.9307 curveto
12.892 0.9846 12.9361 1.0616 12.9998 1.0609 curveto
13.0012 1.0623 l
13.011 1.0623 l
13.0124 1.0637 l
13.0488 1.0637 l
closepath
closepath
gsave
0 setgray
fill
0 setgray
grestore
0 setlinejoin
0.02 setlinewidth
0 setgray
8 1.2296 m
0 setgray
0.02 setlinewidth
[] 0 setdash
2 2 m
2 14 m
0 setgray
[] 0 setdash
4 14 m
4 14 m
4 13.9455 l
stroke
6.85714 14 m
6.85714 14 m
6.85714 13.9455 l
stroke
9.71429 14 m
9.71429 14 m
9.71429 13.9455 l
stroke
12.5714 14 m
12.5714 14 m
12.5714 13.9455 l
stroke
0 setgray
0.02 setlinewidth
[] 0 setdash
0 setgray
[] 0 setdash
2.57143 14 m
2.57143 14 m
2.57143 13.891 l
stroke
5.42857 14 m
5.42857 14 m
5.42857 13.891 l
stroke
8.28571 14 m
8.28571 14 m
8.28571 13.891 l
stroke
11.1429 14 m
11.1429 14 m
11.1429 13.891 l
stroke
0 setgray
0.02 setlinewidth
[] 0 setdash
0 setgray
[] 0 setdash
1 setlinecap
2 14 m
14 14 l
stroke
0 setgray
0.02 setlinewidth
[] 0 setdash
0 setlinecap
0 setgray
[] 0 setdash
2 14 m
0 setgray
0.02 setlinewidth
[] 0 setdash
2 2 m
showpage
grestore
%%Trailer
