%!PS-Adobe-3.0 EPSF-3.0
%%DocumentNeededResources: font Helvetica
%%+ font Helvetica-Bold
%%+ font Helvetica-Oblique
%%+ font Helvetica-BoldOblique
%%+ font Symbol
%%Title: R Graphics Output
%%Creator: R Software
%%Pages: (atend)
%%BoundingBox: 0 0 720 720
%%EndComments
%%BeginProlog
/bp  { gs sRGB gs } def
% begin .ps.prolog
/gs  { gsave } bind def
/gr  { grestore } bind def
/ep  { showpage gr gr } bind def
/m   { moveto } bind def
/l  { rlineto } bind def
/np  { newpath } bind def
/cp  { closepath } bind def
/f   { fill } bind def
/o   { stroke } bind def
/c   { newpath 0 360 arc } bind def
/r   { 4 2 roll moveto 1 copy 3 -1 roll exch 0 exch rlineto 0 rlineto -1 mul 0 exch rlineto closepath } bind def
/p1  { stroke } bind def
/p2  { gsave bg fill grestore newpath } bind def
/p3  { gsave bg fill grestore stroke } bind def
/p6  { gsave bg eofill grestore newpath } bind def
/p7  { gsave bg eofill grestore stroke } bind def
/t   { 5 -2 roll moveto gsave rotate
       1 index stringwidth pop
       mul neg 0 rmoveto show grestore } bind def
/ta  { 4 -2 roll moveto gsave rotate show } bind def
/tb  { 2 -1 roll 0 rmoveto show } bind def
/cl  { grestore gsave newpath 3 index 3 index moveto 1 index
       4 -1 roll lineto  exch 1 index lineto lineto
       closepath clip newpath } bind def
/rgb { setrgbcolor } bind def
/s   { scalefont setfont } bind def
% end   .ps.prolog
/sRGB { [ /CIEBasedABC
          << /DecodeLMN
               [ { dup 0.03928 le
                        {12.92321 div}
                        {0.055 add 1.055 div 2.4 exp }
                     ifelse
                 } bind dup dup
               ]
             /MatrixLMN [0.412457 0.212673 0.019334
                         0.357576 0.715152 0.119192
                         0.180437 0.072175 0.950301]
             /WhitePoint [0.9505 1.0 1.0890]
           >>
         ] setcolorspace } bind def
/srgb { setcolor } bind def
%%IncludeResource: font Helvetica
/Helvetica findfont
dup length dict begin
  {1 index /FID ne {def} {pop pop} ifelse} forall
  /Encoding ISOLatin1Encoding def
  currentdict
  end
/Font1 exch definefont pop
%%IncludeResource: font Helvetica-Bold
/Helvetica-Bold findfont
dup length dict begin
  {1 index /FID ne {def} {pop pop} ifelse} forall
  /Encoding ISOLatin1Encoding def
  currentdict
  end
/Font2 exch definefont pop
%%IncludeResource: font Helvetica-Oblique
/Helvetica-Oblique findfont
dup length dict begin
  {1 index /FID ne {def} {pop pop} ifelse} forall
  /Encoding ISOLatin1Encoding def
  currentdict
  end
/Font3 exch definefont pop
%%IncludeResource: font Helvetica-BoldOblique
/Helvetica-BoldOblique findfont
dup length dict begin
  {1 index /FID ne {def} {pop pop} ifelse} forall
  /Encoding ISOLatin1Encoding def
  currentdict
  end
/Font4 exch definefont pop
%%IncludeResource: font Symbol
/Symbol findfont
dup length dict begin
  {1 index /FID ne {def} {pop pop} ifelse} forall
  currentdict
  end
/Font5 exch definefont pop
%%EndProlog
%%Page: 1 1
bp
0.00 0.00 720.00 720.00 cl
0.00 0.00 720.00 720.00 cl
0.00 0.00 720.00 720.00 cl
0.00 0.00 720.00 720.00 cl
0.00 0.00 720.00 720.00 cl
0.00 0.00 720.00 720.00 cl
0.00 0.00 720.00 720.00 cl
0.00 0.00 720.00 720.00 cl
0.00 0.00 720.00 720.00 cl
0.00 0.00 720.00 720.00 cl
/bg { 1 1 1 srgb } def
1 1 1 srgb
1.16 setlinewidth
[] 0 setdash
1 setlinecap
1 setlinejoin
10.00 setmiterlimit
0.00 0.00 720.00 720.00 r p3
0.00 0.00 720.00 720.00 cl
42.47 48.35 714.02 714.02 cl
/bg { 1 1 1 srgb } def
42.47 48.35 671.56 665.68 r p2
/bg { 0 0 0 srgb } def
0 0 0 srgb
0.71 setlinewidth
[] 0 setdash
1 setlinecap
1 setlinejoin
10.00 setmiterlimit
138.40 137.00 1.95 c p3
138.40 134.10 1.95 c p3
138.40 141.84 1.95 c p3
138.40 135.72 1.95 c p3
138.40 137.21 1.95 c p3
1.07 setlinewidth
[] 0 setdash
0 setlinecap
np
138.40 109.02 m
0 16.92 l
o
np
138.40 94.18 m
0 -15.58 l
o
/bg { 1 1 1 srgb } def
1 setlinecap
np
 82.44 109.02 m
0 -14.84 l
111.93 0 l
0 14.84 l
-111.93 0 l
cp p3
2.13 setlinewidth
[] 0 setdash
0 setlinecap
np
82.44 101.19 m
111.93 0 l
o
/bg { 0 0 0 srgb } def
0.71 setlinewidth
[] 0 setdash
1 setlinecap
298.30 139.02 1.95 c p3
298.30 142.66 1.95 c p3
298.30 147.71 1.95 c p3
1.07 setlinewidth
[] 0 setdash
0 setlinecap
np
298.30 114.17 m
0 21.75 l
o
np
298.30 99.18 m
0 -19.99 l
o
/bg { 1 1 1 srgb } def
1 setlinecap
np
 242.33 114.17 m
0 -14.99 l
111.93 0 l
0 14.99 l
-111.93 0 l
cp p3
2.13 setlinewidth
[] 0 setdash
0 setlinecap
np
242.33 104.70 m
111.93 0 l
o
/bg { 0 0 0 srgb } def
0.71 setlinewidth
[] 0 setdash
1 setlinecap
458.19 168.32 1.95 c p3
458.19 431.95 1.95 c p3
1.07 setlinewidth
[] 0 setdash
0 setlinecap
np
458.19 324.36 m
0 63.94 l
o
np
458.19 266.13 m
0 -63.96 l
o
/bg { 1 1 1 srgb } def
1 setlinecap
np
 402.23 324.36 m
0 -58.23 l
111.92 0 l
0 58.23 l
-111.92 0 l
cp p3
2.13 setlinewidth
[] 0 setdash
0 setlinecap
np
402.23 297.12 m
111.92 0 l
o
1.07 setlinewidth
[] 0 setdash
np
618.09 342.91 m
0 102.46 l
o
np
618.09 261.73 m
0 -112.57 l
o
1 setlinecap
np
 562.12 342.91 m
0 -81.18 l
111.93 0 l
0 81.18 l
-111.93 0 l
cp p3
2.13 setlinewidth
[] 0 setdash
0 setlinecap
np
562.12 298.53 m
111.93 0 l
o
/Font1 findfont 11 s
218.35 470.36 (0.0081) .5 0 t
0.64 setlinewidth
[] 0 setdash
1 setlinecap
np
138.40 452.70 m
0 11.01 l
o
np
138.40 463.71 m
159.90 0 l
o
np
298.30 463.71 m
0 -11.01 l
o
298.30 514.37 (< 2.2e-16) .5 0 t
np
138.40 496.71 m
0 11.01 l
o
np
138.40 507.72 m
319.79 0 l
o
np
458.19 507.72 m
0 -11.01 l
o
378.24 558.39 (< 2.2e-16) .5 0 t
np
138.40 540.73 m
0 11.00 l
o
np
138.40 551.73 m
479.69 0 l
o
np
618.09 551.73 m
0 -11.00 l
o
378.24 602.40 (< 2.2e-16) .5 0 t
np
298.30 584.74 m
0 11.00 l
o
np
298.30 595.74 m
159.89 0 l
o
np
458.19 595.74 m
0 -11.00 l
o
458.19 646.41 (< 2.2e-16) .5 0 t
np
298.30 628.75 m
0 11.00 l
o
np
298.30 639.75 m
319.79 0 l
o
np
618.09 639.75 m
0 -11.00 l
o
538.14 690.42 (0.61) .5 0 t
np
458.19 672.76 m
0 11.00 l
o
np
458.19 683.76 m
159.90 0 l
o
np
618.09 683.76 m
0 -11.00 l
o
0.00 0.00 720.00 720.00 cl
0.00 0.00 720.00 720.00 cl
0.00 0.00 720.00 720.00 cl
0.00 0.00 720.00 720.00 cl
0.00 0.00 720.00 720.00 cl
0.00 0.00 720.00 720.00 cl
0.00 0.00 720.00 720.00 cl
0.00 0.00 720.00 720.00 cl
0.00 0.00 720.00 720.00 cl
0.00 0.00 720.00 720.00 cl
0.00 0.00 720.00 720.00 cl
0.00 0.00 720.00 720.00 cl
0.00 0.00 720.00 720.00 cl
0 0 0 srgb
1.07 setlinewidth
[] 0 setdash
0 setlinecap
1 setlinejoin
10.00 setmiterlimit
np
42.47 48.35 m
0 665.67 l
o
0.00 0.00 720.00 720.00 cl
0.00 0.00 720.00 720.00 cl
0.00 0.00 720.00 720.00 cl
/Font1 findfont 20 s
0 0 0 srgb
37.09 67.07 (0) 1 0 t
37.09 224.50 (2) 1 0 t
37.09 381.93 (4) 1 0 t
37.09 539.36 (6) 1 0 t
37.09 696.79 (8) 1 0 t
0.00 0.00 720.00 720.00 cl
0.00 0.00 720.00 720.00 cl
0 0 0 srgb
1.16 setlinewidth
[] 0 setdash
0 setlinecap
1 setlinejoin
10.00 setmiterlimit
np
39.48 74.25 m
2.99 0 l
o
np
39.48 231.68 m
2.99 0 l
o
np
39.48 389.11 m
2.99 0 l
o
np
39.48 546.54 m
2.99 0 l
o
np
39.48 703.97 m
2.99 0 l
o
0.00 0.00 720.00 720.00 cl
0.00 0.00 720.00 720.00 cl
0.00 0.00 720.00 720.00 cl
0.00 0.00 720.00 720.00 cl
0.00 0.00 720.00 720.00 cl
0.00 0.00 720.00 720.00 cl
0.00 0.00 720.00 720.00 cl
0 0 0 srgb
1.07 setlinewidth
[] 0 setdash
0 setlinecap
1 setlinejoin
10.00 setmiterlimit
np
42.47 48.35 m
671.55 0 l
o
0.00 0.00 720.00 720.00 cl
0.00 0.00 720.00 720.00 cl
0.00 0.00 720.00 720.00 cl
0 0 0 srgb
1.16 setlinewidth
[] 0 setdash
0 setlinecap
1 setlinejoin
10.00 setmiterlimit
np
138.40 45.36 m
0 2.99 l
o
np
298.30 45.36 m
0 2.99 l
o
np
458.19 45.36 m
0 2.99 l
o
np
618.09 45.36 m
0 2.99 l
o
0.00 0.00 720.00 720.00 cl
0.00 0.00 720.00 720.00 cl
/Font1 findfont 20 s
0 0 0 srgb
138.40 28.61 (0) .5 0 t
298.30 28.61 (0.5) .5 0 t
458.19 28.61 (5) .5 0 t
618.09 28.61 (50) .5 0 t
0.00 0.00 720.00 720.00 cl
0.00 0.00 720.00 720.00 cl
0.00 0.00 720.00 720.00 cl
0.00 0.00 720.00 720.00 cl
0.00 0.00 720.00 720.00 cl
0.00 0.00 720.00 720.00 cl
/Font1 findfont 20 s
0 0 0 srgb
107.01 8.62 (Injected antibody specific f) 0 ta
-0.600 (or imm) tb
-0.200 (unodominant epitope [nMol]) tb gr
0.00 0.00 720.00 720.00 cl
0.00 0.00 720.00 720.00 cl
/Font1 findfont 20 s
0 0 0 srgb
20.34 109.95 (Gener) 90 ta
-0.200 (ated antibody specific f) tb
-0.600 (or lo) tb
-0.300 (w accessib) tb
-0.400 (le epitope [nMol]) tb gr
0.00 0.00 720.00 720.00 cl
0.00 0.00 720.00 720.00 cl
0.00 0.00 720.00 720.00 cl
0.00 0.00 720.00 720.00 cl
0.00 0.00 720.00 720.00 cl
0.00 0.00 720.00 720.00 cl
0.00 0.00 720.00 720.00 cl
0.00 0.00 720.00 720.00 cl
0.00 0.00 720.00 720.00 cl
0.00 0.00 720.00 720.00 cl
0.00 0.00 720.00 720.00 cl
0.00 0.00 720.00 720.00 cl
ep
%%Trailer
%%Pages: 1
%%EOF
