%!PS-Adobe-3.0 EPSF-3.0
%%DocumentNeededResources: font Helvetica
%%+ font Helvetica-Bold
%%+ font Helvetica-Oblique
%%+ font Helvetica-BoldOblique
%%+ font Symbol
%%Title: R Graphics Output
%%Creator: R Software
%%Pages: (atend)
%%BoundingBox: 0 0 720 720
%%EndComments
%%BeginProlog
/bp  { gs sRGB gs } def
% begin .ps.prolog
/gs  { gsave } bind def
/gr  { grestore } bind def
/ep  { showpage gr gr } bind def
/m   { moveto } bind def
/l  { rlineto } bind def
/np  { newpath } bind def
/cp  { closepath } bind def
/f   { fill } bind def
/o   { stroke } bind def
/c   { newpath 0 360 arc } bind def
/r   { 4 2 roll moveto 1 copy 3 -1 roll exch 0 exch rlineto 0 rlineto -1 mul 0 exch rlineto closepath } bind def
/p1  { stroke } bind def
/p2  { gsave bg fill grestore newpath } bind def
/p3  { gsave bg fill grestore stroke } bind def
/p6  { gsave bg eofill grestore newpath } bind def
/p7  { gsave bg eofill grestore stroke } bind def
/t   { 5 -2 roll moveto gsave rotate
       1 index stringwidth pop
       mul neg 0 rmoveto show grestore } bind def
/ta  { 4 -2 roll moveto gsave rotate show } bind def
/tb  { 2 -1 roll 0 rmoveto show } bind def
/cl  { grestore gsave newpath 3 index 3 index moveto 1 index
       4 -1 roll lineto  exch 1 index lineto lineto
       closepath clip newpath } bind def
/rgb { setrgbcolor } bind def
/s   { scalefont setfont } bind def
% end   .ps.prolog
/sRGB { [ /CIEBasedABC
          << /DecodeLMN
               [ { dup 0.03928 le
                        {12.92321 div}
                        {0.055 add 1.055 div 2.4 exp }
                     ifelse
                 } bind dup dup
               ]
             /MatrixLMN [0.412457 0.212673 0.019334
                         0.357576 0.715152 0.119192
                         0.180437 0.072175 0.950301]
             /WhitePoint [0.9505 1.0 1.0890]
           >>
         ] setcolorspace } bind def
/srgb { setcolor } bind def
%%IncludeResource: font Helvetica
/Helvetica findfont
dup length dict begin
  {1 index /FID ne {def} {pop pop} ifelse} forall
  /Encoding ISOLatin1Encoding def
  currentdict
  end
/Font1 exch definefont pop
%%IncludeResource: font Helvetica-Bold
/Helvetica-Bold findfont
dup length dict begin
  {1 index /FID ne {def} {pop pop} ifelse} forall
  /Encoding ISOLatin1Encoding def
  currentdict
  end
/Font2 exch definefont pop
%%IncludeResource: font Helvetica-Oblique
/Helvetica-Oblique findfont
dup length dict begin
  {1 index /FID ne {def} {pop pop} ifelse} forall
  /Encoding ISOLatin1Encoding def
  currentdict
  end
/Font3 exch definefont pop
%%IncludeResource: font Helvetica-BoldOblique
/Helvetica-BoldOblique findfont
dup length dict begin
  {1 index /FID ne {def} {pop pop} ifelse} forall
  /Encoding ISOLatin1Encoding def
  currentdict
  end
/Font4 exch definefont pop
%%IncludeResource: font Symbol
/Symbol findfont
dup length dict begin
  {1 index /FID ne {def} {pop pop} ifelse} forall
  currentdict
  end
/Font5 exch definefont pop
%%EndProlog
%%Page: 1 1
bp
0.00 0.00 720.00 720.00 cl
0.00 0.00 720.00 720.00 cl
0.00 0.00 720.00 720.00 cl
0.00 0.00 720.00 720.00 cl
0.00 0.00 720.00 720.00 cl
0.00 0.00 720.00 720.00 cl
0.00 0.00 720.00 720.00 cl
0.00 0.00 720.00 720.00 cl
0.00 0.00 720.00 720.00 cl
0.00 0.00 720.00 720.00 cl
/bg { 1 1 1 srgb } def
1 1 1 srgb
1.16 setlinewidth
[] 0 setdash
1 setlinecap
1 setlinejoin
10.00 setmiterlimit
0.00 0.00 720.00 720.00 r p3
0.00 0.00 720.00 720.00 cl
53.59 48.35 714.02 714.02 cl
/bg { 1 1 1 srgb } def
53.59 48.35 660.44 665.68 r p2
/bg { 0 0 0 srgb } def
0 0 0 srgb
0.71 setlinewidth
[] 0 setdash
1 setlinecap
1 setlinejoin
10.00 setmiterlimit
147.93 176.01 1.95 c p3
147.93 169.64 1.95 c p3
147.93 166.81 1.95 c p3
147.93 166.56 1.95 c p3
147.93 161.65 1.95 c p3
147.93 157.58 1.95 c p3
1.07 setlinewidth
[] 0 setdash
0 setlinecap
np
147.93 118.71 m
0 33.52 l
o
np
147.93 94.62 m
0 -16.02 l
o
/bg { 1 1 1 srgb } def
1 setlinecap
np
 92.90 118.71 m
0 -24.09 l
110.07 0 l
0 24.09 l
-110.07 0 l
cp p3
2.13 setlinewidth
[] 0 setdash
0 setlinecap
np
92.90 105.71 m
110.07 0 l
o
/bg { 0 0 0 srgb } def
0.71 setlinewidth
[] 0 setdash
1 setlinecap
305.18 193.95 1.95 c p3
305.18 180.91 1.95 c p3
305.18 175.64 1.95 c p3
305.18 201.59 1.95 c p3
305.18 197.34 1.95 c p3
1.07 setlinewidth
[] 0 setdash
0 setlinecap
np
305.18 129.75 m
0 41.44 l
o
np
305.18 99.21 m
0 -20.22 l
o
/bg { 1 1 1 srgb } def
1 setlinecap
np
 250.14 129.75 m
0 -30.54 l
110.08 0 l
0 30.54 l
-110.08 0 l
cp p3
2.13 setlinewidth
[] 0 setdash
0 setlinecap
np
250.14 112.38 m
110.08 0 l
o
1.07 setlinewidth
[] 0 setdash
np
462.43 312.06 m
0 64.76 l
o
np
462.43 242.27 m
0 -69.88 l
o
1 setlinecap
np
 407.39 312.06 m
0 -69.79 l
110.07 0 l
0 69.79 l
-110.07 0 l
cp p3
2.13 setlinewidth
[] 0 setdash
0 setlinecap
np
407.39 277.52 m
110.07 0 l
o
/bg { 0 0 0 srgb } def
0.71 setlinewidth
[] 0 setdash
1 setlinecap
619.67 164.21 1.95 c p3
1.07 setlinewidth
[] 0 setdash
0 setlinecap
np
619.67 361.03 m
0 84.34 l
o
np
619.67 294.71 m
0 -82.85 l
o
/bg { 1 1 1 srgb } def
1 setlinecap
np
 564.64 361.03 m
0 -66.32 l
110.07 0 l
0 66.32 l
-110.07 0 l
cp p3
2.13 setlinewidth
[] 0 setdash
0 setlinecap
np
564.64 327.92 m
110.07 0 l
o
/Font1 findfont 11 s
226.56 470.36 (0.0081) .5 0 t
0.64 setlinewidth
[] 0 setdash
1 setlinecap
np
147.93 452.70 m
0 11.01 l
o
np
147.93 463.71 m
157.25 0 l
o
np
305.18 463.71 m
0 -11.01 l
o
305.18 514.37 (< 2.2e-16) .5 0 t
np
147.93 496.71 m
0 11.01 l
o
np
147.93 507.72 m
314.50 0 l
o
np
462.43 507.72 m
0 -11.01 l
o
383.80 558.39 (< 2.2e-16) .5 0 t
np
147.93 540.73 m
0 11.00 l
o
np
147.93 551.73 m
471.74 0 l
o
np
619.67 551.73 m
0 -11.00 l
o
383.80 602.40 (< 2.2e-16) .5 0 t
np
305.18 584.74 m
0 11.00 l
o
np
305.18 595.74 m
157.25 0 l
o
np
462.43 595.74 m
0 -11.00 l
o
462.43 646.41 (< 2.2e-16) .5 0 t
np
305.18 628.75 m
0 11.00 l
o
np
305.18 639.75 m
314.49 0 l
o
np
619.67 639.75 m
0 -11.00 l
o
541.05 690.42 (6.3e-12) .5 0 t
np
462.43 672.76 m
0 11.00 l
o
np
462.43 683.76 m
157.24 0 l
o
np
619.67 683.76 m
0 -11.00 l
o
0.00 0.00 720.00 720.00 cl
0.00 0.00 720.00 720.00 cl
0.00 0.00 720.00 720.00 cl
0.00 0.00 720.00 720.00 cl
0.00 0.00 720.00 720.00 cl
0.00 0.00 720.00 720.00 cl
0.00 0.00 720.00 720.00 cl
0.00 0.00 720.00 720.00 cl
0.00 0.00 720.00 720.00 cl
0.00 0.00 720.00 720.00 cl
0.00 0.00 720.00 720.00 cl
0.00 0.00 720.00 720.00 cl
0.00 0.00 720.00 720.00 cl
0 0 0 srgb
1.07 setlinewidth
[] 0 setdash
0 setlinecap
1 setlinejoin
10.00 setmiterlimit
np
53.59 48.35 m
0 665.67 l
o
0.00 0.00 720.00 720.00 cl
0.00 0.00 720.00 720.00 cl
0.00 0.00 720.00 720.00 cl
/Font1 findfont 20 s
0 0 0 srgb
48.21 71.42 (0) 1 0 t
48.21 267.12 (5) 1 0 t
48.21 462.81 (10) 1 0 t
48.21 658.51 (15) 1 0 t
0.00 0.00 720.00 720.00 cl
0.00 0.00 720.00 720.00 cl
0 0 0 srgb
1.16 setlinewidth
[] 0 setdash
0 setlinecap
1 setlinejoin
10.00 setmiterlimit
np
50.60 78.60 m
2.99 0 l
o
np
50.60 274.30 m
2.99 0 l
o
np
50.60 469.99 m
2.99 0 l
o
np
50.60 665.69 m
2.99 0 l
o
0.00 0.00 720.00 720.00 cl
0.00 0.00 720.00 720.00 cl
0.00 0.00 720.00 720.00 cl
0.00 0.00 720.00 720.00 cl
0.00 0.00 720.00 720.00 cl
0.00 0.00 720.00 720.00 cl
0.00 0.00 720.00 720.00 cl
0 0 0 srgb
1.07 setlinewidth
[] 0 setdash
0 setlinecap
1 setlinejoin
10.00 setmiterlimit
np
53.59 48.35 m
660.43 0 l
o
0.00 0.00 720.00 720.00 cl
0.00 0.00 720.00 720.00 cl
0.00 0.00 720.00 720.00 cl
0 0 0 srgb
1.16 setlinewidth
[] 0 setdash
0 setlinecap
1 setlinejoin
10.00 setmiterlimit
np
147.93 45.36 m
0 2.99 l
o
np
305.18 45.36 m
0 2.99 l
o
np
462.43 45.36 m
0 2.99 l
o
np
619.67 45.36 m
0 2.99 l
o
0.00 0.00 720.00 720.00 cl
0.00 0.00 720.00 720.00 cl
/Font1 findfont 20 s
0 0 0 srgb
147.93 28.61 (0) .5 0 t
305.18 28.61 (0.5) .5 0 t
462.43 28.61 (5) .5 0 t
619.67 28.61 (50) .5 0 t
0.00 0.00 720.00 720.00 cl
0.00 0.00 720.00 720.00 cl
0.00 0.00 720.00 720.00 cl
0.00 0.00 720.00 720.00 cl
0.00 0.00 720.00 720.00 cl
0.00 0.00 720.00 720.00 cl
/Font1 findfont 20 s
0 0 0 srgb
112.57 8.62 (Injected antibody specific f) 0 ta
-0.600 (or imm) tb
-0.200 (unodominant epitope [nMol]) tb gr
0.00 0.00 720.00 720.00 cl
0.00 0.00 720.00 720.00 cl
/Font1 findfont 20 s
0 0 0 srgb
20.34 109.95 (Gener) 90 ta
-0.200 (ated antibody specific f) tb
-0.600 (or lo) tb
-0.300 (w accessib) tb
-0.400 (le epitope [nMol]) tb gr
0.00 0.00 720.00 720.00 cl
0.00 0.00 720.00 720.00 cl
0.00 0.00 720.00 720.00 cl
0.00 0.00 720.00 720.00 cl
0.00 0.00 720.00 720.00 cl
0.00 0.00 720.00 720.00 cl
0.00 0.00 720.00 720.00 cl
0.00 0.00 720.00 720.00 cl
0.00 0.00 720.00 720.00 cl
0.00 0.00 720.00 720.00 cl
0.00 0.00 720.00 720.00 cl
0.00 0.00 720.00 720.00 cl
ep
%%Trailer
%%Pages: 1
%%EOF
