%!PS-Adobe-3.0 EPSF-3.0
%%DocumentNeededResources: font Helvetica
%%+ font Helvetica-Bold
%%+ font Helvetica-Oblique
%%+ font Helvetica-BoldOblique
%%+ font Symbol
%%Title: R Graphics Output
%%Creator: R Software
%%Pages: (atend)
%%BoundingBox: 0 0 720 720
%%EndComments
%%BeginProlog
/bp  { gs sRGB gs } def
% begin .ps.prolog
/gs  { gsave } bind def
/gr  { grestore } bind def
/ep  { showpage gr gr } bind def
/m   { moveto } bind def
/l  { rlineto } bind def
/np  { newpath } bind def
/cp  { closepath } bind def
/f   { fill } bind def
/o   { stroke } bind def
/c   { newpath 0 360 arc } bind def
/r   { 4 2 roll moveto 1 copy 3 -1 roll exch 0 exch rlineto 0 rlineto -1 mul 0 exch rlineto closepath } bind def
/p1  { stroke } bind def
/p2  { gsave bg fill grestore newpath } bind def
/p3  { gsave bg fill grestore stroke } bind def
/p6  { gsave bg eofill grestore newpath } bind def
/p7  { gsave bg eofill grestore stroke } bind def
/t   { 5 -2 roll moveto gsave rotate
       1 index stringwidth pop
       mul neg 0 rmoveto show grestore } bind def
/ta  { 4 -2 roll moveto gsave rotate show } bind def
/tb  { 2 -1 roll 0 rmoveto show } bind def
/cl  { grestore gsave newpath 3 index 3 index moveto 1 index
       4 -1 roll lineto  exch 1 index lineto lineto
       closepath clip newpath } bind def
/rgb { setrgbcolor } bind def
/s   { scalefont setfont } bind def
% end   .ps.prolog
/sRGB { [ /CIEBasedABC
          << /DecodeLMN
               [ { dup 0.03928 le
                        {12.92321 div}
                        {0.055 add 1.055 div 2.4 exp }
                     ifelse
                 } bind dup dup
               ]
             /MatrixLMN [0.412457 0.212673 0.019334
                         0.357576 0.715152 0.119192
                         0.180437 0.072175 0.950301]
             /WhitePoint [0.9505 1.0 1.0890]
           >>
         ] setcolorspace } bind def
/srgb { setcolor } bind def
%%IncludeResource: font Helvetica
/Helvetica findfont
dup length dict begin
  {1 index /FID ne {def} {pop pop} ifelse} forall
  /Encoding ISOLatin1Encoding def
  currentdict
  end
/Font1 exch definefont pop
%%IncludeResource: font Helvetica-Bold
/Helvetica-Bold findfont
dup length dict begin
  {1 index /FID ne {def} {pop pop} ifelse} forall
  /Encoding ISOLatin1Encoding def
  currentdict
  end
/Font2 exch definefont pop
%%IncludeResource: font Helvetica-Oblique
/Helvetica-Oblique findfont
dup length dict begin
  {1 index /FID ne {def} {pop pop} ifelse} forall
  /Encoding ISOLatin1Encoding def
  currentdict
  end
/Font3 exch definefont pop
%%IncludeResource: font Helvetica-BoldOblique
/Helvetica-BoldOblique findfont
dup length dict begin
  {1 index /FID ne {def} {pop pop} ifelse} forall
  /Encoding ISOLatin1Encoding def
  currentdict
  end
/Font4 exch definefont pop
%%IncludeResource: font Symbol
/Symbol findfont
dup length dict begin
  {1 index /FID ne {def} {pop pop} ifelse} forall
  currentdict
  end
/Font5 exch definefont pop
%%EndProlog
%%Page: 1 1
bp
0.00 0.00 720.00 720.00 cl
0.00 0.00 720.00 720.00 cl
0.00 0.00 720.00 720.00 cl
0.00 0.00 720.00 720.00 cl
0.00 0.00 720.00 720.00 cl
0.00 0.00 720.00 720.00 cl
0.00 0.00 720.00 720.00 cl
0.00 0.00 720.00 720.00 cl
0.00 0.00 720.00 720.00 cl
0.00 0.00 720.00 720.00 cl
/bg { 1 1 1 srgb } def
1 1 1 srgb
1.16 setlinewidth
[] 0 setdash
1 setlinecap
1 setlinejoin
10.00 setmiterlimit
0.00 0.00 720.00 720.00 r p3
0.00 0.00 720.00 720.00 cl
60.91 51.87 714.02 714.02 cl
/bg { 1 1 1 srgb } def
60.91 51.87 653.12 662.16 r p2
/bg { 0 0 0 srgb } def
0 0 0 srgb
0.71 setlinewidth
[] 0 setdash
1 setlinecap
1 setlinejoin
10.00 setmiterlimit
154.21 161.22 1.95 c p3
154.21 156.61 1.95 c p3
154.21 158.24 1.95 c p3
154.21 196.06 1.95 c p3
1.07 setlinewidth
[] 0 setdash
0 setlinecap
np
154.21 119.32 m
0 28.90 l
o
np
154.21 96.82 m
0 -14.86 l
o
/bg { 1 1 1 srgb } def
1 setlinecap
np
 99.78 119.32 m
0 -22.50 l
108.85 0 l
0 22.50 l
-108.85 0 l
cp p3
2.13 setlinewidth
[] 0 setdash
0 setlinecap
np
99.78 106.44 m
108.85 0 l
o
/bg { 0 0 0 srgb } def
0.71 setlinewidth
[] 0 setdash
1 setlinecap
309.71 172.25 1.95 c p3
309.71 218.42 1.95 c p3
309.71 181.00 1.95 c p3
1.07 setlinewidth
[] 0 setdash
0 setlinecap
np
309.71 129.70 m
0 33.61 l
o
np
309.71 102.82 m
0 -20.86 l
o
/bg { 1 1 1 srgb } def
1 setlinecap
np
 255.29 129.70 m
0 -26.88 l
108.85 0 l
0 26.88 l
-108.85 0 l
cp p3
2.13 setlinewidth
[] 0 setdash
0 setlinecap
np
255.29 117.99 m
108.85 0 l
o
1.07 setlinewidth
[] 0 setdash
np
465.22 268.64 m
0 97.60 l
o
np
465.22 189.72 m
0 -62.70 l
o
1 setlinecap
np
 410.79 268.64 m
0 -78.92 l
108.85 0 l
0 78.92 l
-108.85 0 l
cp p3
2.13 setlinewidth
[] 0 setdash
0 setlinecap
np
410.79 215.71 m
108.85 0 l
o
/bg { 0 0 0 srgb } def
0.71 setlinewidth
[] 0 setdash
1 setlinecap
620.72 198.98 1.95 c p3
1.07 setlinewidth
[] 0 setdash
0 setlinecap
np
620.72 357.01 m
0 89.78 l
o
np
620.72 295.34 m
0 -56.07 l
o
/bg { 1 1 1 srgb } def
1 setlinecap
np
 566.29 357.01 m
0 -61.67 l
108.86 0 l
0 61.67 l
-108.86 0 l
cp p3
2.13 setlinewidth
[] 0 setdash
0 setlinecap
np
566.29 323.82 m
108.86 0 l
o
/Font1 findfont 11 s
231.96 471.65 (0.00053) .5 0 t
0.64 setlinewidth
[] 0 setdash
1 setlinecap
np
154.21 454.09 m
0 10.94 l
o
np
154.21 465.03 m
155.50 0 l
o
np
309.71 465.03 m
0 -10.94 l
o
309.71 515.43 (p < 2.22e-16) .5 0 t
np
154.21 497.86 m
0 10.95 l
o
np
154.21 508.81 m
311.01 0 l
o
np
465.22 508.81 m
0 -10.95 l
o
387.46 559.21 (p < 2.22e-16) .5 0 t
np
154.21 541.64 m
0 10.95 l
o
np
154.21 552.59 m
466.51 0 l
o
np
620.72 552.59 m
0 -10.95 l
o
387.46 602.99 (p < 2.22e-16) .5 0 t
np
309.71 585.42 m
0 10.95 l
o
np
309.71 596.37 m
155.51 0 l
o
np
465.22 596.37 m
0 -10.95 l
o
465.22 646.77 (p < 2.22e-16) .5 0 t
np
309.71 629.20 m
0 10.95 l
o
np
309.71 640.15 m
311.01 0 l
o
np
620.72 640.15 m
0 -10.95 l
o
542.97 690.55 (p < 2.22e-16) .5 0 t
np
465.22 672.98 m
0 10.94 l
o
np
465.22 683.92 m
155.50 0 l
o
np
620.72 683.92 m
0 -10.94 l
o
0.00 0.00 720.00 720.00 cl
0.00 0.00 720.00 720.00 cl
0.00 0.00 720.00 720.00 cl
0.00 0.00 720.00 720.00 cl
0.00 0.00 720.00 720.00 cl
0.00 0.00 720.00 720.00 cl
0.00 0.00 720.00 720.00 cl
0.00 0.00 720.00 720.00 cl
0.00 0.00 720.00 720.00 cl
0.00 0.00 720.00 720.00 cl
0.00 0.00 720.00 720.00 cl
0.00 0.00 720.00 720.00 cl
0.00 0.00 720.00 720.00 cl
0 0 0 srgb
1.07 setlinewidth
[] 0 setdash
0 setlinecap
1 setlinejoin
10.00 setmiterlimit
np
60.91 51.87 m
0 662.15 l
o
0.00 0.00 720.00 720.00 cl
0.00 0.00 720.00 720.00 cl
0.00 0.00 720.00 720.00 cl
/Font1 findfont 20 s
0 0 0 srgb
55.53 74.78 (0.0) 1 0 t
55.53 253.75 (0.5) 1 0 t
55.53 432.72 (1.0) 1 0 t
55.53 611.69 (1.5) 1 0 t
0.00 0.00 720.00 720.00 cl
0.00 0.00 720.00 720.00 cl
0 0 0 srgb
1.16 setlinewidth
[] 0 setdash
0 setlinecap
1 setlinejoin
10.00 setmiterlimit
np
57.92 81.96 m
2.99 0 l
o
np
57.92 260.93 m
2.99 0 l
o
np
57.92 439.90 m
2.99 0 l
o
np
57.92 618.87 m
2.99 0 l
o
0.00 0.00 720.00 720.00 cl
0.00 0.00 720.00 720.00 cl
0.00 0.00 720.00 720.00 cl
0.00 0.00 720.00 720.00 cl
0.00 0.00 720.00 720.00 cl
0.00 0.00 720.00 720.00 cl
0.00 0.00 720.00 720.00 cl
0 0 0 srgb
1.07 setlinewidth
[] 0 setdash
0 setlinecap
1 setlinejoin
10.00 setmiterlimit
np
60.91 51.87 m
653.11 0 l
o
0.00 0.00 720.00 720.00 cl
0.00 0.00 720.00 720.00 cl
0.00 0.00 720.00 720.00 cl
0 0 0 srgb
1.16 setlinewidth
[] 0 setdash
0 setlinecap
1 setlinejoin
10.00 setmiterlimit
np
154.21 48.88 m
0 2.99 l
o
np
309.71 48.88 m
0 2.99 l
o
np
465.22 48.88 m
0 2.99 l
o
np
620.72 48.88 m
0 2.99 l
o
0.00 0.00 720.00 720.00 cl
0.00 0.00 720.00 720.00 cl
/Font1 findfont 20 s
0 0 0 srgb
154.21 32.13 (0) .5 0 t
309.71 32.13 (0.5) .5 0 t
465.22 32.13 (5) .5 0 t
620.72 32.13 (50) .5 0 t
0.00 0.00 720.00 720.00 cl
0.00 0.00 720.00 720.00 cl
0.00 0.00 720.00 720.00 cl
0.00 0.00 720.00 720.00 cl
0.00 0.00 720.00 720.00 cl
0.00 0.00 720.00 720.00 cl
/Font1 findfont 20 s
0 0 0 srgb
116.23 10.38 (Injected antibody specific f) 0 ta
-0.600 (or imm) tb
-0.200 (unodominant epitope [nMol]) tb gr
0.00 0.00 720.00 720.00 cl
0.00 0.00 720.00 720.00 cl
/Font1 findfont 20 s
0 0 0 srgb
20.34 111.71 (Gener) 90 ta
-0.200 (ated antibody specific f) tb
-0.600 (or lo) tb
-0.300 (w accessib) tb
-0.400 (le epitope [nMol]) tb gr
0.00 0.00 720.00 720.00 cl
0.00 0.00 720.00 720.00 cl
0.00 0.00 720.00 720.00 cl
0.00 0.00 720.00 720.00 cl
0.00 0.00 720.00 720.00 cl
0.00 0.00 720.00 720.00 cl
0.00 0.00 720.00 720.00 cl
0.00 0.00 720.00 720.00 cl
0.00 0.00 720.00 720.00 cl
0.00 0.00 720.00 720.00 cl
0.00 0.00 720.00 720.00 cl
0.00 0.00 720.00 720.00 cl
ep
%%Trailer
%%Pages: 1
%%EOF
