%!PS-Adobe-3.0 EPSF-3.0
%%DocumentNeededResources: font Helvetica
%%+ font Helvetica-Bold
%%+ font Helvetica-Oblique
%%+ font Helvetica-BoldOblique
%%+ font Symbol
%%Title: R Graphics Output
%%Creator: R Software
%%Pages: (atend)
%%BoundingBox: 0 0 720 720
%%EndComments
%%BeginProlog
/bp  { gs sRGB gs } def
% begin .ps.prolog
/gs  { gsave } bind def
/gr  { grestore } bind def
/ep  { showpage gr gr } bind def
/m   { moveto } bind def
/l  { rlineto } bind def
/np  { newpath } bind def
/cp  { closepath } bind def
/f   { fill } bind def
/o   { stroke } bind def
/c   { newpath 0 360 arc } bind def
/r   { 4 2 roll moveto 1 copy 3 -1 roll exch 0 exch rlineto 0 rlineto -1 mul 0 exch rlineto closepath } bind def
/p1  { stroke } bind def
/p2  { gsave bg fill grestore newpath } bind def
/p3  { gsave bg fill grestore stroke } bind def
/p6  { gsave bg eofill grestore newpath } bind def
/p7  { gsave bg eofill grestore stroke } bind def
/t   { 5 -2 roll moveto gsave rotate
       1 index stringwidth pop
       mul neg 0 rmoveto show grestore } bind def
/ta  { 4 -2 roll moveto gsave rotate show } bind def
/tb  { 2 -1 roll 0 rmoveto show } bind def
/cl  { grestore gsave newpath 3 index 3 index moveto 1 index
       4 -1 roll lineto  exch 1 index lineto lineto
       closepath clip newpath } bind def
/rgb { setrgbcolor } bind def
/s   { scalefont setfont } bind def
% end   .ps.prolog
/sRGB { [ /CIEBasedABC
          << /DecodeLMN
               [ { dup 0.03928 le
                        {12.92321 div}
                        {0.055 add 1.055 div 2.4 exp }
                     ifelse
                 } bind dup dup
               ]
             /MatrixLMN [0.412457 0.212673 0.019334
                         0.357576 0.715152 0.119192
                         0.180437 0.072175 0.950301]
             /WhitePoint [0.9505 1.0 1.0890]
           >>
         ] setcolorspace } bind def
/srgb { setcolor } bind def
%%IncludeResource: font Helvetica
/Helvetica findfont
dup length dict begin
  {1 index /FID ne {def} {pop pop} ifelse} forall
  /Encoding ISOLatin1Encoding def
  currentdict
  end
/Font1 exch definefont pop
%%IncludeResource: font Helvetica-Bold
/Helvetica-Bold findfont
dup length dict begin
  {1 index /FID ne {def} {pop pop} ifelse} forall
  /Encoding ISOLatin1Encoding def
  currentdict
  end
/Font2 exch definefont pop
%%IncludeResource: font Helvetica-Oblique
/Helvetica-Oblique findfont
dup length dict begin
  {1 index /FID ne {def} {pop pop} ifelse} forall
  /Encoding ISOLatin1Encoding def
  currentdict
  end
/Font3 exch definefont pop
%%IncludeResource: font Helvetica-BoldOblique
/Helvetica-BoldOblique findfont
dup length dict begin
  {1 index /FID ne {def} {pop pop} ifelse} forall
  /Encoding ISOLatin1Encoding def
  currentdict
  end
/Font4 exch definefont pop
%%IncludeResource: font Symbol
/Symbol findfont
dup length dict begin
  {1 index /FID ne {def} {pop pop} ifelse} forall
  currentdict
  end
/Font5 exch definefont pop
%%EndProlog
%%Page: 1 1
bp
0.00 0.00 720.00 720.00 cl
0.00 0.00 720.00 720.00 cl
0.00 0.00 720.00 720.00 cl
0.00 0.00 720.00 720.00 cl
0.00 0.00 720.00 720.00 cl
0.00 0.00 720.00 720.00 cl
0.00 0.00 720.00 720.00 cl
0.00 0.00 720.00 720.00 cl
0.00 0.00 720.00 720.00 cl
0.00 0.00 720.00 720.00 cl
/bg { 1 1 1 srgb } def
1 1 1 srgb
1.16 setlinewidth
[] 0 setdash
1 setlinecap
1 setlinejoin
10.00 setmiterlimit
0.00 0.00 720.00 720.00 r p3
0.00 0.00 720.00 720.00 cl
44.23 51.87 714.02 714.02 cl
/bg { 1 1 1 srgb } def
44.23 51.87 669.80 662.16 r p2
/bg { 0 0 0 srgb } def
0 0 0 srgb
0.71 setlinewidth
[] 0 setdash
1 setlinecap
1 setlinejoin
10.00 setmiterlimit
139.91 174.34 1.95 c p3
139.91 173.44 1.95 c p3
139.91 160.09 1.95 c p3
139.91 171.22 1.95 c p3
139.91 166.62 1.95 c p3
1.07 setlinewidth
[] 0 setdash
0 setlinecap
np
139.91 124.02 m
0 28.92 l
o
np
139.91 100.36 m
0 -18.40 l
o
/bg { 1 1 1 srgb } def
1 setlinecap
np
 84.10 124.02 m
0 -23.66 l
111.63 0 l
0 23.66 l
-111.63 0 l
cp p3
2.13 setlinewidth
[] 0 setdash
0 setlinecap
np
84.10 108.82 m
111.63 0 l
o
/bg { 0 0 0 srgb } def
0.71 setlinewidth
[] 0 setdash
1 setlinecap
299.39 207.40 1.95 c p3
1.07 setlinewidth
[] 0 setdash
0 setlinecap
np
299.39 132.52 m
0 39.84 l
o
np
299.39 98.37 m
0 -16.41 l
o
/bg { 1 1 1 srgb } def
1 setlinecap
np
 243.57 132.52 m
0 -34.15 l
111.63 0 l
0 34.15 l
-111.63 0 l
cp p3
2.13 setlinewidth
[] 0 setdash
0 setlinecap
np
243.57 115.70 m
111.63 0 l
o
1.07 setlinewidth
[] 0 setdash
np
458.86 308.40 m
0 70.83 l
o
np
458.86 222.23 m
0 -65.52 l
o
1 setlinecap
np
 403.05 308.40 m
0 -86.17 l
111.63 0 l
0 86.17 l
-111.63 0 l
cp p3
2.13 setlinewidth
[] 0 setdash
0 setlinecap
np
403.05 262.58 m
111.63 0 l
o
/bg { 0 0 0 srgb } def
0.71 setlinewidth
[] 0 setdash
1 setlinecap
618.34 440.36 1.95 c p3
618.34 446.79 1.95 c p3
1.07 setlinewidth
[] 0 setdash
0 setlinecap
np
618.34 324.24 m
0 108.29 l
o
np
618.34 251.54 m
0 -74.86 l
o
/bg { 1 1 1 srgb } def
1 setlinecap
np
 562.52 324.24 m
0 -72.70 l
111.63 0 l
0 72.70 l
-111.63 0 l
cp p3
2.13 setlinewidth
[] 0 setdash
0 setlinecap
np
562.52 290.72 m
111.63 0 l
o
/Font1 findfont 11 s
219.65 471.65 (0.27) .5 0 t
0.64 setlinewidth
[] 0 setdash
1 setlinecap
np
139.91 454.09 m
0 10.94 l
o
np
139.91 465.03 m
159.48 0 l
o
np
299.39 465.03 m
0 -10.94 l
o
299.39 515.43 (p < 2.22e-16) .5 0 t
np
139.91 497.86 m
0 10.95 l
o
np
139.91 508.81 m
318.95 0 l
o
np
458.86 508.81 m
0 -10.95 l
o
379.12 559.21 (p < 2.22e-16) .5 0 t
np
139.91 541.64 m
0 10.95 l
o
np
139.91 552.59 m
478.43 0 l
o
np
618.34 552.59 m
0 -10.95 l
o
379.12 602.99 (p < 2.22e-16) .5 0 t
np
299.39 585.42 m
0 10.95 l
o
np
299.39 596.37 m
159.47 0 l
o
np
458.86 596.37 m
0 -10.95 l
o
458.86 646.77 (p < 2.22e-16) .5 0 t
np
299.39 629.20 m
0 10.95 l
o
np
299.39 640.15 m
318.95 0 l
o
np
618.34 640.15 m
0 -10.95 l
o
538.60 690.55 (0.00024) .5 0 t
np
458.86 672.98 m
0 10.94 l
o
np
458.86 683.92 m
159.48 0 l
o
np
618.34 683.92 m
0 -10.94 l
o
0.00 0.00 720.00 720.00 cl
0.00 0.00 720.00 720.00 cl
0.00 0.00 720.00 720.00 cl
0.00 0.00 720.00 720.00 cl
0.00 0.00 720.00 720.00 cl
0.00 0.00 720.00 720.00 cl
0.00 0.00 720.00 720.00 cl
0.00 0.00 720.00 720.00 cl
0.00 0.00 720.00 720.00 cl
0.00 0.00 720.00 720.00 cl
0.00 0.00 720.00 720.00 cl
0.00 0.00 720.00 720.00 cl
0.00 0.00 720.00 720.00 cl
0 0 0 srgb
1.07 setlinewidth
[] 0 setdash
0 setlinecap
1 setlinejoin
10.00 setmiterlimit
np
44.23 51.87 m
0 662.15 l
o
0.00 0.00 720.00 720.00 cl
0.00 0.00 720.00 720.00 cl
0.00 0.00 720.00 720.00 cl
/Font1 findfont 20 s
0 0 0 srgb
38.85 74.78 (0) 1 0 t
38.85 291.34 (2) 1 0 t
38.85 507.90 (4) 1 0 t
0.00 0.00 720.00 720.00 cl
0.00 0.00 720.00 720.00 cl
0 0 0 srgb
1.16 setlinewidth
[] 0 setdash
0 setlinecap
1 setlinejoin
10.00 setmiterlimit
np
41.24 81.96 m
2.99 0 l
o
np
41.24 298.52 m
2.99 0 l
o
np
41.24 515.08 m
2.99 0 l
o
0.00 0.00 720.00 720.00 cl
0.00 0.00 720.00 720.00 cl
0.00 0.00 720.00 720.00 cl
0.00 0.00 720.00 720.00 cl
0.00 0.00 720.00 720.00 cl
0.00 0.00 720.00 720.00 cl
0.00 0.00 720.00 720.00 cl
0 0 0 srgb
1.07 setlinewidth
[] 0 setdash
0 setlinecap
1 setlinejoin
10.00 setmiterlimit
np
44.23 51.87 m
669.79 0 l
o
0.00 0.00 720.00 720.00 cl
0.00 0.00 720.00 720.00 cl
0.00 0.00 720.00 720.00 cl
0 0 0 srgb
1.16 setlinewidth
[] 0 setdash
0 setlinecap
1 setlinejoin
10.00 setmiterlimit
np
139.91 48.88 m
0 2.99 l
o
np
299.39 48.88 m
0 2.99 l
o
np
458.86 48.88 m
0 2.99 l
o
np
618.34 48.88 m
0 2.99 l
o
0.00 0.00 720.00 720.00 cl
0.00 0.00 720.00 720.00 cl
/Font1 findfont 20 s
0 0 0 srgb
139.91 32.13 (0) .5 0 t
299.39 32.13 (0.5) .5 0 t
458.86 32.13 (5) .5 0 t
618.34 32.13 (50) .5 0 t
0.00 0.00 720.00 720.00 cl
0.00 0.00 720.00 720.00 cl
0.00 0.00 720.00 720.00 cl
0.00 0.00 720.00 720.00 cl
0.00 0.00 720.00 720.00 cl
0.00 0.00 720.00 720.00 cl
/Font1 findfont 20 s
0 0 0 srgb
107.89 10.38 (Injected antibody specific f) 0 ta
-0.600 (or imm) tb
-0.200 (unodominant epitope [nMol]) tb gr
0.00 0.00 720.00 720.00 cl
0.00 0.00 720.00 720.00 cl
/Font1 findfont 20 s
0 0 0 srgb
20.34 111.71 (Gener) 90 ta
-0.200 (ated antibody specific f) tb
-0.600 (or lo) tb
-0.300 (w accessib) tb
-0.400 (le epitope [nMol]) tb gr
0.00 0.00 720.00 720.00 cl
0.00 0.00 720.00 720.00 cl
0.00 0.00 720.00 720.00 cl
0.00 0.00 720.00 720.00 cl
0.00 0.00 720.00 720.00 cl
0.00 0.00 720.00 720.00 cl
0.00 0.00 720.00 720.00 cl
0.00 0.00 720.00 720.00 cl
0.00 0.00 720.00 720.00 cl
0.00 0.00 720.00 720.00 cl
0.00 0.00 720.00 720.00 cl
0.00 0.00 720.00 720.00 cl
ep
%%Trailer
%%Pages: 1
%%EOF
