%!PS-Adobe-3.0 EPSF-3.0
%%DocumentNeededResources: font Helvetica
%%+ font Helvetica-Bold
%%+ font Helvetica-Oblique
%%+ font Helvetica-BoldOblique
%%+ font Symbol
%%Title: R Graphics Output
%%Creator: R Software
%%Pages: (atend)
%%BoundingBox: 0 0 720 720
%%EndComments
%%BeginProlog
/bp  { gs sRGB gs } def
% begin .ps.prolog
/gs  { gsave } bind def
/gr  { grestore } bind def
/ep  { showpage gr gr } bind def
/m   { moveto } bind def
/l  { rlineto } bind def
/np  { newpath } bind def
/cp  { closepath } bind def
/f   { fill } bind def
/o   { stroke } bind def
/c   { newpath 0 360 arc } bind def
/r   { 4 2 roll moveto 1 copy 3 -1 roll exch 0 exch rlineto 0 rlineto -1 mul 0 exch rlineto closepath } bind def
/p1  { stroke } bind def
/p2  { gsave bg fill grestore newpath } bind def
/p3  { gsave bg fill grestore stroke } bind def
/p6  { gsave bg eofill grestore newpath } bind def
/p7  { gsave bg eofill grestore stroke } bind def
/t   { 5 -2 roll moveto gsave rotate
       1 index stringwidth pop
       mul neg 0 rmoveto show grestore } bind def
/ta  { 4 -2 roll moveto gsave rotate show } bind def
/tb  { 2 -1 roll 0 rmoveto show } bind def
/cl  { grestore gsave newpath 3 index 3 index moveto 1 index
       4 -1 roll lineto  exch 1 index lineto lineto
       closepath clip newpath } bind def
/rgb { setrgbcolor } bind def
/s   { scalefont setfont } bind def
% end   .ps.prolog
/sRGB { [ /CIEBasedABC
          << /DecodeLMN
               [ { dup 0.03928 le
                        {12.92321 div}
                        {0.055 add 1.055 div 2.4 exp }
                     ifelse
                 } bind dup dup
               ]
             /MatrixLMN [0.412457 0.212673 0.019334
                         0.357576 0.715152 0.119192
                         0.180437 0.072175 0.950301]
             /WhitePoint [0.9505 1.0 1.0890]
           >>
         ] setcolorspace } bind def
/srgb { setcolor } bind def
%%IncludeResource: font Helvetica
/Helvetica findfont
dup length dict begin
  {1 index /FID ne {def} {pop pop} ifelse} forall
  /Encoding ISOLatin1Encoding def
  currentdict
  end
/Font1 exch definefont pop
%%IncludeResource: font Helvetica-Bold
/Helvetica-Bold findfont
dup length dict begin
  {1 index /FID ne {def} {pop pop} ifelse} forall
  /Encoding ISOLatin1Encoding def
  currentdict
  end
/Font2 exch definefont pop
%%IncludeResource: font Helvetica-Oblique
/Helvetica-Oblique findfont
dup length dict begin
  {1 index /FID ne {def} {pop pop} ifelse} forall
  /Encoding ISOLatin1Encoding def
  currentdict
  end
/Font3 exch definefont pop
%%IncludeResource: font Helvetica-BoldOblique
/Helvetica-BoldOblique findfont
dup length dict begin
  {1 index /FID ne {def} {pop pop} ifelse} forall
  /Encoding ISOLatin1Encoding def
  currentdict
  end
/Font4 exch definefont pop
%%IncludeResource: font Symbol
/Symbol findfont
dup length dict begin
  {1 index /FID ne {def} {pop pop} ifelse} forall
  currentdict
  end
/Font5 exch definefont pop
%%EndProlog
%%Page: 1 1
bp
0.00 0.00 720.00 720.00 cl
0.00 0.00 720.00 720.00 cl
0.00 0.00 720.00 720.00 cl
0.00 0.00 720.00 720.00 cl
0.00 0.00 720.00 720.00 cl
0.00 0.00 720.00 720.00 cl
0.00 0.00 720.00 720.00 cl
0.00 0.00 720.00 720.00 cl
0.00 0.00 720.00 720.00 cl
0.00 0.00 720.00 720.00 cl
/bg { 1 1 1 srgb } def
1 1 1 srgb
1.16 setlinewidth
[] 0 setdash
1 setlinecap
1 setlinejoin
10.00 setmiterlimit
0.00 0.00 720.00 720.00 r p3
0.00 0.00 720.00 720.00 cl
53.59 48.35 714.02 714.02 cl
/bg { 1 1 1 srgb } def
53.59 48.35 660.44 665.68 r p2
/bg { 0 0 0 srgb } def
0 0 0 srgb
0.71 setlinewidth
[] 0 setdash
1 setlinecap
1 setlinejoin
10.00 setmiterlimit
147.93 153.84 1.95 c p3
147.93 153.39 1.95 c p3
147.93 166.29 1.95 c p3
1.07 setlinewidth
[] 0 setdash
0 setlinecap
np
147.93 113.87 m
0 32.28 l
o
np
147.93 90.56 m
0 -11.96 l
o
/bg { 1 1 1 srgb } def
1 setlinecap
np
 92.90 113.87 m
0 -23.31 l
110.07 0 l
0 23.31 l
-110.07 0 l
cp p3
2.13 setlinewidth
[] 0 setdash
0 setlinecap
np
92.90 97.69 m
110.07 0 l
o
/bg { 0 0 0 srgb } def
0.71 setlinewidth
[] 0 setdash
1 setlinecap
305.18 176.67 1.95 c p3
305.18 150.14 1.95 c p3
305.18 150.72 1.95 c p3
1.07 setlinewidth
[] 0 setdash
0 setlinecap
np
305.18 104.01 m
0 23.01 l
o
np
305.18 86.64 m
0 -7.92 l
o
/bg { 1 1 1 srgb } def
1 setlinecap
np
 250.14 104.01 m
0 -17.37 l
110.08 0 l
0 17.37 l
-110.08 0 l
cp p3
2.13 setlinewidth
[] 0 setdash
0 setlinecap
np
250.14 93.62 m
110.08 0 l
o
/bg { 0 0 0 srgb } def
0.71 setlinewidth
[] 0 setdash
1 setlinecap
462.43 199.01 1.95 c p3
1.07 setlinewidth
[] 0 setdash
0 setlinecap
np
462.43 356.95 m
0 88.42 l
o
np
462.43 297.46 m
0 -79.26 l
o
/bg { 1 1 1 srgb } def
1 setlinecap
np
 407.39 356.95 m
0 -59.49 l
110.07 0 l
0 59.49 l
-110.07 0 l
cp p3
2.13 setlinewidth
[] 0 setdash
0 setlinecap
np
407.39 329.04 m
110.07 0 l
o
/bg { 0 0 0 srgb } def
0.71 setlinewidth
[] 0 setdash
1 setlinecap
619.67 168.38 1.95 c p3
619.67 155.33 1.95 c p3
619.67 93.11 1.95 c p3
1.07 setlinewidth
[] 0 setdash
0 setlinecap
np
619.67 329.72 m
0 71.35 l
o
np
619.67 266.70 m
0 -92.70 l
o
/bg { 1 1 1 srgb } def
1 setlinecap
np
 564.64 329.72 m
0 -63.02 l
110.07 0 l
0 63.02 l
-110.07 0 l
cp p3
2.13 setlinewidth
[] 0 setdash
0 setlinecap
np
564.64 300.92 m
110.07 0 l
o
/Font1 findfont 11 s
226.56 470.36 (0.0061) .5 0 t
0.64 setlinewidth
[] 0 setdash
1 setlinecap
np
147.93 452.70 m
0 11.01 l
o
np
147.93 463.71 m
157.25 0 l
o
np
305.18 463.71 m
0 -11.01 l
o
305.18 514.37 (< 2.2e-16) .5 0 t
np
147.93 496.71 m
0 11.01 l
o
np
147.93 507.72 m
314.50 0 l
o
np
462.43 507.72 m
0 -11.01 l
o
383.80 558.39 (< 2.2e-16) .5 0 t
np
147.93 540.73 m
0 11.00 l
o
np
147.93 551.73 m
471.74 0 l
o
np
619.67 551.73 m
0 -11.00 l
o
383.80 602.40 (< 2.2e-16) .5 0 t
np
305.18 584.74 m
0 11.00 l
o
np
305.18 595.74 m
157.25 0 l
o
np
462.43 595.74 m
0 -11.00 l
o
462.43 646.41 (< 2.2e-16) .5 0 t
np
305.18 628.75 m
0 11.00 l
o
np
305.18 639.75 m
314.49 0 l
o
np
619.67 639.75 m
0 -11.00 l
o
541.05 690.42 (5.7e-06) .5 0 t
np
462.43 672.76 m
0 11.00 l
o
np
462.43 683.76 m
157.24 0 l
o
np
619.67 683.76 m
0 -11.00 l
o
0.00 0.00 720.00 720.00 cl
0.00 0.00 720.00 720.00 cl
0.00 0.00 720.00 720.00 cl
0.00 0.00 720.00 720.00 cl
0.00 0.00 720.00 720.00 cl
0.00 0.00 720.00 720.00 cl
0.00 0.00 720.00 720.00 cl
0.00 0.00 720.00 720.00 cl
0.00 0.00 720.00 720.00 cl
0.00 0.00 720.00 720.00 cl
0.00 0.00 720.00 720.00 cl
0.00 0.00 720.00 720.00 cl
0.00 0.00 720.00 720.00 cl
0 0 0 srgb
1.07 setlinewidth
[] 0 setdash
0 setlinecap
1 setlinejoin
10.00 setmiterlimit
np
53.59 48.35 m
0 665.67 l
o
0.00 0.00 720.00 720.00 cl
0.00 0.00 720.00 720.00 cl
0.00 0.00 720.00 720.00 cl
/Font1 findfont 20 s
0 0 0 srgb
48.21 70.91 (0) 1 0 t
48.21 304.95 (10) 1 0 t
48.21 538.99 (20) 1 0 t
0.00 0.00 720.00 720.00 cl
0.00 0.00 720.00 720.00 cl
0 0 0 srgb
1.16 setlinewidth
[] 0 setdash
0 setlinecap
1 setlinejoin
10.00 setmiterlimit
np
50.60 78.09 m
2.99 0 l
o
np
50.60 312.13 m
2.99 0 l
o
np
50.60 546.17 m
2.99 0 l
o
0.00 0.00 720.00 720.00 cl
0.00 0.00 720.00 720.00 cl
0.00 0.00 720.00 720.00 cl
0.00 0.00 720.00 720.00 cl
0.00 0.00 720.00 720.00 cl
0.00 0.00 720.00 720.00 cl
0.00 0.00 720.00 720.00 cl
0 0 0 srgb
1.07 setlinewidth
[] 0 setdash
0 setlinecap
1 setlinejoin
10.00 setmiterlimit
np
53.59 48.35 m
660.43 0 l
o
0.00 0.00 720.00 720.00 cl
0.00 0.00 720.00 720.00 cl
0.00 0.00 720.00 720.00 cl
0 0 0 srgb
1.16 setlinewidth
[] 0 setdash
0 setlinecap
1 setlinejoin
10.00 setmiterlimit
np
147.93 45.36 m
0 2.99 l
o
np
305.18 45.36 m
0 2.99 l
o
np
462.43 45.36 m
0 2.99 l
o
np
619.67 45.36 m
0 2.99 l
o
0.00 0.00 720.00 720.00 cl
0.00 0.00 720.00 720.00 cl
/Font1 findfont 20 s
0 0 0 srgb
147.93 28.61 (0) .5 0 t
305.18 28.61 (0.5) .5 0 t
462.43 28.61 (5) .5 0 t
619.67 28.61 (50) .5 0 t
0.00 0.00 720.00 720.00 cl
0.00 0.00 720.00 720.00 cl
0.00 0.00 720.00 720.00 cl
0.00 0.00 720.00 720.00 cl
0.00 0.00 720.00 720.00 cl
0.00 0.00 720.00 720.00 cl
/Font1 findfont 20 s
0 0 0 srgb
112.57 8.62 (Injected antibody specific f) 0 ta
-0.600 (or imm) tb
-0.200 (unodominant epitope [nMol]) tb gr
0.00 0.00 720.00 720.00 cl
0.00 0.00 720.00 720.00 cl
/Font1 findfont 20 s
0 0 0 srgb
20.34 109.95 (Gener) 90 ta
-0.200 (ated antibody specific f) tb
-0.600 (or lo) tb
-0.300 (w accessib) tb
-0.400 (le epitope [nMol]) tb gr
0.00 0.00 720.00 720.00 cl
0.00 0.00 720.00 720.00 cl
0.00 0.00 720.00 720.00 cl
0.00 0.00 720.00 720.00 cl
0.00 0.00 720.00 720.00 cl
0.00 0.00 720.00 720.00 cl
0.00 0.00 720.00 720.00 cl
0.00 0.00 720.00 720.00 cl
0.00 0.00 720.00 720.00 cl
0.00 0.00 720.00 720.00 cl
0.00 0.00 720.00 720.00 cl
0.00 0.00 720.00 720.00 cl
ep
%%Trailer
%%Pages: 1
%%EOF
