%!PS-Adobe-3.0 EPSF-3.0
%%DocumentNeededResources: font Helvetica
%%+ font Helvetica-Bold
%%+ font Helvetica-Oblique
%%+ font Helvetica-BoldOblique
%%+ font Symbol
%%Title: R Graphics Output
%%Creator: R Software
%%Pages: (atend)
%%BoundingBox: 0 0 720 720
%%EndComments
%%BeginProlog
/bp  { gs sRGB gs } def
% begin .ps.prolog
/gs  { gsave } bind def
/gr  { grestore } bind def
/ep  { showpage gr gr } bind def
/m   { moveto } bind def
/l  { rlineto } bind def
/np  { newpath } bind def
/cp  { closepath } bind def
/f   { fill } bind def
/o   { stroke } bind def
/c   { newpath 0 360 arc } bind def
/r   { 4 2 roll moveto 1 copy 3 -1 roll exch 0 exch rlineto 0 rlineto -1 mul 0 exch rlineto closepath } bind def
/p1  { stroke } bind def
/p2  { gsave bg fill grestore newpath } bind def
/p3  { gsave bg fill grestore stroke } bind def
/p6  { gsave bg eofill grestore newpath } bind def
/p7  { gsave bg eofill grestore stroke } bind def
/t   { 5 -2 roll moveto gsave rotate
       1 index stringwidth pop
       mul neg 0 rmoveto show grestore } bind def
/ta  { 4 -2 roll moveto gsave rotate show } bind def
/tb  { 2 -1 roll 0 rmoveto show } bind def
/cl  { grestore gsave newpath 3 index 3 index moveto 1 index
       4 -1 roll lineto  exch 1 index lineto lineto
       closepath clip newpath } bind def
/rgb { setrgbcolor } bind def
/s   { scalefont setfont } bind def
% end   .ps.prolog
/sRGB { [ /CIEBasedABC
          << /DecodeLMN
               [ { dup 0.03928 le
                        {12.92321 div}
                        {0.055 add 1.055 div 2.4 exp }
                     ifelse
                 } bind dup dup
               ]
             /MatrixLMN [0.412457 0.212673 0.019334
                         0.357576 0.715152 0.119192
                         0.180437 0.072175 0.950301]
             /WhitePoint [0.9505 1.0 1.0890]
           >>
         ] setcolorspace } bind def
/srgb { setcolor } bind def
%%IncludeResource: font Helvetica
/Helvetica findfont
dup length dict begin
  {1 index /FID ne {def} {pop pop} ifelse} forall
  /Encoding ISOLatin1Encoding def
  currentdict
  end
/Font1 exch definefont pop
%%IncludeResource: font Helvetica-Bold
/Helvetica-Bold findfont
dup length dict begin
  {1 index /FID ne {def} {pop pop} ifelse} forall
  /Encoding ISOLatin1Encoding def
  currentdict
  end
/Font2 exch definefont pop
%%IncludeResource: font Helvetica-Oblique
/Helvetica-Oblique findfont
dup length dict begin
  {1 index /FID ne {def} {pop pop} ifelse} forall
  /Encoding ISOLatin1Encoding def
  currentdict
  end
/Font3 exch definefont pop
%%IncludeResource: font Helvetica-BoldOblique
/Helvetica-BoldOblique findfont
dup length dict begin
  {1 index /FID ne {def} {pop pop} ifelse} forall
  /Encoding ISOLatin1Encoding def
  currentdict
  end
/Font4 exch definefont pop
%%IncludeResource: font Symbol
/Symbol findfont
dup length dict begin
  {1 index /FID ne {def} {pop pop} ifelse} forall
  currentdict
  end
/Font5 exch definefont pop
%%EndProlog
%%Page: 1 1
bp
0.00 0.00 720.00 720.00 cl
0.00 0.00 720.00 720.00 cl
0.00 0.00 720.00 720.00 cl
0.00 0.00 720.00 720.00 cl
0.00 0.00 720.00 720.00 cl
0.00 0.00 720.00 720.00 cl
0.00 0.00 720.00 720.00 cl
0.00 0.00 720.00 720.00 cl
0.00 0.00 720.00 720.00 cl
0.00 0.00 720.00 720.00 cl
/bg { 1 1 1 srgb } def
1 1 1 srgb
1.16 setlinewidth
[] 0 setdash
1 setlinecap
1 setlinejoin
10.00 setmiterlimit
0.00 0.00 720.00 720.00 r p3
0.00 0.00 720.00 720.00 cl
70.27 48.35 714.02 714.02 cl
/bg { 1 1 1 srgb } def
70.27 48.35 643.76 665.68 r p2
/bg { 0 0 0 srgb } def
0 0 0 srgb
0.71 setlinewidth
[] 0 setdash
1 setlinecap
1 setlinejoin
10.00 setmiterlimit
162.23 161.46 1.95 c p3
162.23 169.71 1.95 c p3
162.23 157.68 1.95 c p3
1.07 setlinewidth
[] 0 setdash
0 setlinecap
np
162.23 120.47 m
0 27.69 l
o
np
162.23 95.91 m
0 -17.31 l
o
/bg { 1 1 1 srgb } def
1 setlinecap
np
 108.59 120.47 m
0 -24.56 l
107.29 0 l
0 24.56 l
-107.29 0 l
cp p3
2.13 setlinewidth
[] 0 setdash
0 setlinecap
np
108.59 106.97 m
107.29 0 l
o
/bg { 0 0 0 srgb } def
0.71 setlinewidth
[] 0 setdash
1 setlinecap
315.51 198.74 1.95 c p3
1.07 setlinewidth
[] 0 setdash
0 setlinecap
np
315.51 128.84 m
0 33.65 l
o
np
315.51 105.09 m
0 -19.81 l
o
/bg { 1 1 1 srgb } def
1 setlinecap
np
 261.86 128.84 m
0 -23.75 l
107.29 0 l
0 23.75 l
-107.29 0 l
cp p3
2.13 setlinewidth
[] 0 setdash
0 setlinecap
np
261.86 114.63 m
107.29 0 l
o
/bg { 0 0 0 srgb } def
0.71 setlinewidth
[] 0 setdash
1 setlinecap
468.78 333.05 1.95 c p3
468.78 342.19 1.95 c p3
468.78 395.06 1.95 c p3
468.78 339.03 1.95 c p3
1.07 setlinewidth
[] 0 setdash
0 setlinecap
np
468.78 250.81 m
0 77.41 l
o
np
468.78 198.53 m
0 -47.84 l
o
/bg { 1 1 1 srgb } def
1 setlinecap
np
 415.14 250.81 m
0 -52.28 l
107.29 0 l
0 52.28 l
-107.29 0 l
cp p3
2.13 setlinewidth
[] 0 setdash
0 setlinecap
np
415.14 229.45 m
107.29 0 l
o
/bg { 0 0 0 srgb } def
0.71 setlinewidth
[] 0 setdash
1 setlinecap
622.06 190.05 1.95 c p3
1.07 setlinewidth
[] 0 setdash
0 setlinecap
np
622.06 355.28 m
0 90.09 l
o
np
622.06 290.71 m
0 -72.26 l
o
/bg { 1 1 1 srgb } def
1 setlinecap
np
 568.41 355.28 m
0 -64.57 l
107.29 0 l
0 64.57 l
-107.29 0 l
cp p3
2.13 setlinewidth
[] 0 setdash
0 setlinecap
np
568.41 326.79 m
107.29 0 l
o
/Font1 findfont 11 s
238.87 470.36 (0.001) .5 0 t
0.64 setlinewidth
[] 0 setdash
1 setlinecap
np
162.23 452.70 m
0 11.01 l
o
np
162.23 463.71 m
153.28 0 l
o
np
315.51 463.71 m
0 -11.01 l
o
315.51 514.37 (< 2.2e-16) .5 0 t
np
162.23 496.71 m
0 11.01 l
o
np
162.23 507.72 m
306.55 0 l
o
np
468.78 507.72 m
0 -11.01 l
o
392.14 558.39 (< 2.2e-16) .5 0 t
np
162.23 540.73 m
0 11.00 l
o
np
162.23 551.73 m
459.83 0 l
o
np
622.06 551.73 m
0 -11.00 l
o
392.14 602.40 (< 2.2e-16) .5 0 t
np
315.51 584.74 m
0 11.00 l
o
np
315.51 595.74 m
153.27 0 l
o
np
468.78 595.74 m
0 -11.00 l
o
468.78 646.41 (< 2.2e-16) .5 0 t
np
315.51 628.75 m
0 11.00 l
o
np
315.51 639.75 m
306.55 0 l
o
np
622.06 639.75 m
0 -11.00 l
o
545.42 690.42 (< 2.2e-16) .5 0 t
np
468.78 672.76 m
0 11.00 l
o
np
468.78 683.76 m
153.28 0 l
o
np
622.06 683.76 m
0 -11.00 l
o
0.00 0.00 720.00 720.00 cl
0.00 0.00 720.00 720.00 cl
0.00 0.00 720.00 720.00 cl
0.00 0.00 720.00 720.00 cl
0.00 0.00 720.00 720.00 cl
0.00 0.00 720.00 720.00 cl
0.00 0.00 720.00 720.00 cl
0.00 0.00 720.00 720.00 cl
0.00 0.00 720.00 720.00 cl
0.00 0.00 720.00 720.00 cl
0.00 0.00 720.00 720.00 cl
0.00 0.00 720.00 720.00 cl
0.00 0.00 720.00 720.00 cl
0 0 0 srgb
1.07 setlinewidth
[] 0 setdash
0 setlinecap
1 setlinejoin
10.00 setmiterlimit
np
70.27 48.35 m
0 665.67 l
o
0.00 0.00 720.00 720.00 cl
0.00 0.00 720.00 720.00 cl
0.00 0.00 720.00 720.00 cl
/Font1 findfont 20 s
0 0 0 srgb
64.89 65.34 (0.0) 1 0 t
64.89 210.51 (2.5) 1 0 t
64.89 355.68 (5.0) 1 0 t
64.89 500.86 (7.5) 1 0 t
64.89 646.03 (10.0) 1 0 t
0.00 0.00 720.00 720.00 cl
0.00 0.00 720.00 720.00 cl
0 0 0 srgb
1.16 setlinewidth
[] 0 setdash
0 setlinecap
1 setlinejoin
10.00 setmiterlimit
np
67.28 72.52 m
2.99 0 l
o
np
67.28 217.69 m
2.99 0 l
o
np
67.28 362.86 m
2.99 0 l
o
np
67.28 508.04 m
2.99 0 l
o
np
67.28 653.21 m
2.99 0 l
o
0.00 0.00 720.00 720.00 cl
0.00 0.00 720.00 720.00 cl
0.00 0.00 720.00 720.00 cl
0.00 0.00 720.00 720.00 cl
0.00 0.00 720.00 720.00 cl
0.00 0.00 720.00 720.00 cl
0.00 0.00 720.00 720.00 cl
0 0 0 srgb
1.07 setlinewidth
[] 0 setdash
0 setlinecap
1 setlinejoin
10.00 setmiterlimit
np
70.27 48.35 m
643.75 0 l
o
0.00 0.00 720.00 720.00 cl
0.00 0.00 720.00 720.00 cl
0.00 0.00 720.00 720.00 cl
0 0 0 srgb
1.16 setlinewidth
[] 0 setdash
0 setlinecap
1 setlinejoin
10.00 setmiterlimit
np
162.23 45.36 m
0 2.99 l
o
np
315.51 45.36 m
0 2.99 l
o
np
468.78 45.36 m
0 2.99 l
o
np
622.06 45.36 m
0 2.99 l
o
0.00 0.00 720.00 720.00 cl
0.00 0.00 720.00 720.00 cl
/Font1 findfont 20 s
0 0 0 srgb
162.23 28.61 (0) .5 0 t
315.51 28.61 (0.5) .5 0 t
468.78 28.61 (5) .5 0 t
622.06 28.61 (50) .5 0 t
0.00 0.00 720.00 720.00 cl
0.00 0.00 720.00 720.00 cl
0.00 0.00 720.00 720.00 cl
0.00 0.00 720.00 720.00 cl
0.00 0.00 720.00 720.00 cl
0.00 0.00 720.00 720.00 cl
/Font1 findfont 20 s
0 0 0 srgb
120.91 8.62 (Injected antibody specific f) 0 ta
-0.600 (or imm) tb
-0.200 (unodominant epitope [nMol]) tb gr
0.00 0.00 720.00 720.00 cl
0.00 0.00 720.00 720.00 cl
/Font1 findfont 20 s
0 0 0 srgb
20.34 109.95 (Gener) 90 ta
-0.200 (ated antibody specific f) tb
-0.600 (or lo) tb
-0.300 (w accessib) tb
-0.400 (le epitope [nMol]) tb gr
0.00 0.00 720.00 720.00 cl
0.00 0.00 720.00 720.00 cl
0.00 0.00 720.00 720.00 cl
0.00 0.00 720.00 720.00 cl
0.00 0.00 720.00 720.00 cl
0.00 0.00 720.00 720.00 cl
0.00 0.00 720.00 720.00 cl
0.00 0.00 720.00 720.00 cl
0.00 0.00 720.00 720.00 cl
0.00 0.00 720.00 720.00 cl
0.00 0.00 720.00 720.00 cl
0.00 0.00 720.00 720.00 cl
ep
%%Trailer
%%Pages: 1
%%EOF
